[gd_scene load_steps=4 format=3 uid="uid://dpt8r5sc0uhqf"]

[ext_resource type="Texture2D" uid="uid://cyncrqe4bh0fg" path="res://sprites/hyptosis_tile-art-batch-1.png" id="1_0tpnm"]

[sub_resource type="TileSetAtlasSource" id="TileSetAtlasSource_08olj"]
texture = ExtResource("1_0tpnm")
texture_region_size = Vector2i(32, 32)
0:0/0 = 0
1:0/0 = 0
2:0/0 = 0
3:0/0 = 0
4:0/0 = 0
5:0/0 = 0
6:0/0 = 0
7:0/0 = 0
8:0/0 = 0
9:0/0 = 0
10:0/0 = 0
11:0/0 = 0
12:0/0 = 0
13:0/0 = 0
14:0/0 = 0
15:0/0 = 0
16:0/0 = 0
17:0/0 = 0
18:0/0 = 0
19:0/0 = 0
20:0/0 = 0
21:0/0 = 0
22:0/0 = 0
23:0/0 = 0
24:0/0 = 0
25:0/0 = 0
26:0/0 = 0
27:0/0 = 0
28:0/0 = 0
29:0/0 = 0
0:1/0 = 0
1:1/0 = 0
2:1/0 = 0
3:1/0 = 0
4:1/0 = 0
5:1/0 = 0
6:1/0 = 0
7:1/0 = 0
8:1/0 = 0
9:1/0 = 0
12:1/0 = 0
13:1/0 = 0
14:1/0 = 0
15:1/0 = 0
16:1/0 = 0
17:1/0 = 0
18:1/0 = 0
19:1/0 = 0
20:1/0 = 0
21:1/0 = 0
22:1/0 = 0
23:1/0 = 0
24:1/0 = 0
25:1/0 = 0
26:1/0 = 0
27:1/0 = 0
28:1/0 = 0
29:1/0 = 0
0:2/0 = 0
1:2/0 = 0
2:2/0 = 0
3:2/0 = 0
4:2/0 = 0
5:2/0 = 0
6:2/0 = 0
7:2/0 = 0
8:2/0 = 0
9:2/0 = 0
10:2/0 = 0
11:2/0 = 0
12:2/0 = 0
13:2/0 = 0
14:2/0 = 0
15:2/0 = 0
16:2/0 = 0
17:2/0 = 0
18:2/0 = 0
19:2/0 = 0
20:2/0 = 0
21:2/0 = 0
22:2/0 = 0
23:2/0 = 0
24:2/0 = 0
25:2/0 = 0
26:2/0 = 0
27:2/0 = 0
28:2/0 = 0
29:2/0 = 0
0:3/0 = 0
1:3/0 = 0
2:3/0 = 0
3:3/0 = 0
4:3/0 = 0
5:3/0 = 0
6:3/0 = 0
7:3/0 = 0
8:3/0 = 0
9:3/0 = 0
10:3/0 = 0
11:3/0 = 0
12:3/0 = 0
13:3/0 = 0
14:3/0 = 0
15:3/0 = 0
16:3/0 = 0
17:3/0 = 0
18:3/0 = 0
19:3/0 = 0
20:3/0 = 0
21:3/0 = 0
22:3/0 = 0
23:3/0 = 0
24:3/0 = 0
25:3/0 = 0
26:3/0 = 0
27:3/0 = 0
28:3/0 = 0
29:3/0 = 0
0:4/0 = 0
1:4/0 = 0
2:4/0 = 0
3:4/0 = 0
4:4/0 = 0
5:4/0 = 0
6:4/0 = 0
7:4/0 = 0
8:4/0 = 0
9:4/0 = 0
10:4/0 = 0
11:4/0 = 0
12:4/0 = 0
13:4/0 = 0
14:4/0 = 0
15:4/0 = 0
16:4/0 = 0
17:4/0 = 0
18:4/0 = 0
19:4/0 = 0
20:4/0 = 0
21:4/0 = 0
22:4/0 = 0
23:4/0 = 0
24:4/0 = 0
25:4/0 = 0
26:4/0 = 0
27:4/0 = 0
28:4/0 = 0
29:4/0 = 0
0:5/0 = 0
1:5/0 = 0
2:5/0 = 0
3:5/0 = 0
4:5/0 = 0
5:5/0 = 0
6:5/0 = 0
7:5/0 = 0
8:5/0 = 0
9:5/0 = 0
10:5/0 = 0
11:5/0 = 0
12:5/0 = 0
13:5/0 = 0
14:5/0 = 0
15:5/0 = 0
16:5/0 = 0
17:5/0 = 0
18:5/0 = 0
19:5/0 = 0
20:5/0 = 0
21:5/0 = 0
22:5/0 = 0
23:5/0 = 0
24:5/0 = 0
25:5/0 = 0
26:5/0 = 0
27:5/0 = 0
28:5/0 = 0
29:5/0 = 0
0:6/0 = 0
1:6/0 = 0
2:6/0 = 0
3:6/0 = 0
4:6/0 = 0
5:6/0 = 0
6:6/0 = 0
7:6/0 = 0
8:6/0 = 0
9:6/0 = 0
10:6/0 = 0
11:6/0 = 0
12:6/0 = 0
13:6/0 = 0
14:6/0 = 0
15:6/0 = 0
16:6/0 = 0
17:6/0 = 0
18:6/0 = 0
19:6/0 = 0
20:6/0 = 0
21:6/0 = 0
22:6/0 = 0
23:6/0 = 0
24:6/0 = 0
25:6/0 = 0
26:6/0 = 0
27:6/0 = 0
28:6/0 = 0
29:6/0 = 0
0:7/0 = 0
1:7/0 = 0
2:7/0 = 0
3:7/0 = 0
4:7/0 = 0
5:7/0 = 0
6:7/0 = 0
7:7/0 = 0
8:7/0 = 0
9:7/0 = 0
10:7/0 = 0
11:7/0 = 0
12:7/0 = 0
13:7/0 = 0
14:7/0 = 0
15:7/0 = 0
16:7/0 = 0
17:7/0 = 0
18:7/0 = 0
19:7/0 = 0
20:7/0 = 0
21:7/0 = 0
22:7/0 = 0
23:7/0 = 0
24:7/0 = 0
25:7/0 = 0
26:7/0 = 0
27:7/0 = 0
28:7/0 = 0
29:7/0 = 0
0:8/0 = 0
1:8/0 = 0
2:8/0 = 0
3:8/0 = 0
4:8/0 = 0
5:8/0 = 0
6:8/0 = 0
7:8/0 = 0
8:8/0 = 0
9:8/0 = 0
10:8/0 = 0
11:8/0 = 0
12:8/0 = 0
13:8/0 = 0
14:8/0 = 0
15:8/0 = 0
16:8/0 = 0
17:8/0 = 0
18:8/0 = 0
19:8/0 = 0
20:8/0 = 0
21:8/0 = 0
22:8/0 = 0
23:8/0 = 0
24:8/0 = 0
25:8/0 = 0
26:8/0 = 0
27:8/0 = 0
28:8/0 = 0
29:8/0 = 0
0:9/0 = 0
1:9/0 = 0
2:9/0 = 0
3:9/0 = 0
4:9/0 = 0
5:9/0 = 0
6:9/0 = 0
7:9/0 = 0
8:9/0 = 0
9:9/0 = 0
10:9/0 = 0
11:9/0 = 0
12:9/0 = 0
13:9/0 = 0
14:9/0 = 0
15:9/0 = 0
16:9/0 = 0
17:9/0 = 0
18:9/0 = 0
19:9/0 = 0
20:9/0 = 0
21:9/0 = 0
22:9/0 = 0
23:9/0 = 0
24:9/0 = 0
25:9/0 = 0
26:9/0 = 0
27:9/0 = 0
0:10/0 = 0
1:10/0 = 0
2:10/0 = 0
3:10/0 = 0
4:10/0 = 0
6:10/0 = 0
7:10/0 = 0
8:10/0 = 0
9:10/0 = 0
10:10/0 = 0
11:10/0 = 0
12:10/0 = 0
13:10/0 = 0
14:10/0 = 0
15:10/0 = 0
16:10/0 = 0
17:10/0 = 0
18:10/0 = 0
19:10/0 = 0
20:10/0 = 0
21:10/0 = 0
22:10/0 = 0
23:10/0 = 0
24:10/0 = 0
25:10/0 = 0
26:10/0 = 0
27:10/0 = 0
0:11/0 = 0
1:11/0 = 0
2:11/0 = 0
3:11/0 = 0
4:11/0 = 0
5:11/0 = 0
6:11/0 = 0
7:11/0 = 0
8:11/0 = 0
9:11/0 = 0
10:11/0 = 0
11:11/0 = 0
12:11/0 = 0
13:11/0 = 0
14:11/0 = 0
15:11/0 = 0
16:11/0 = 0
17:11/0 = 0
18:11/0 = 0
19:11/0 = 0
20:11/0 = 0
21:11/0 = 0
22:11/0 = 0
23:11/0 = 0
24:11/0 = 0
25:11/0 = 0
26:11/0 = 0
27:11/0 = 0
0:12/0 = 0
1:12/0 = 0
2:12/0 = 0
3:12/0 = 0
4:12/0 = 0
5:12/0 = 0
6:12/0 = 0
7:12/0 = 0
8:12/0 = 0
9:12/0 = 0
10:12/0 = 0
11:12/0 = 0
12:12/0 = 0
13:12/0 = 0
14:12/0 = 0
15:12/0 = 0
16:12/0 = 0
17:12/0 = 0
18:12/0 = 0
19:12/0 = 0
20:12/0 = 0
21:12/0 = 0
22:12/0 = 0
23:12/0 = 0
24:12/0 = 0
25:12/0 = 0
0:13/0 = 0
1:13/0 = 0
2:13/0 = 0
3:13/0 = 0
4:13/0 = 0
5:13/0 = 0
6:13/0 = 0
7:13/0 = 0
8:13/0 = 0
9:13/0 = 0
10:13/0 = 0
11:13/0 = 0
12:13/0 = 0
13:13/0 = 0
14:13/0 = 0
15:13/0 = 0
16:13/0 = 0
17:13/0 = 0
18:13/0 = 0
19:13/0 = 0
20:13/0 = 0
21:13/0 = 0
22:13/0 = 0
23:13/0 = 0
24:13/0 = 0
25:13/0 = 0
26:13/0 = 0
0:14/0 = 0
1:14/0 = 0
2:14/0 = 0
3:14/0 = 0
4:14/0 = 0
5:14/0 = 0
6:14/0 = 0
7:14/0 = 0
8:14/0 = 0
9:14/0 = 0
10:14/0 = 0
11:14/0 = 0
12:14/0 = 0
13:14/0 = 0
14:14/0 = 0
15:14/0 = 0
16:14/0 = 0
17:14/0 = 0
18:14/0 = 0
19:14/0 = 0
20:14/0 = 0
21:14/0 = 0
22:14/0 = 0
23:14/0 = 0
24:14/0 = 0
0:15/0 = 0
1:15/0 = 0
2:15/0 = 0
3:15/0 = 0
4:15/0 = 0
5:15/0 = 0
6:15/0 = 0
7:15/0 = 0
8:15/0 = 0
9:15/0 = 0
10:15/0 = 0
11:15/0 = 0
12:15/0 = 0
13:15/0 = 0
14:15/0 = 0
15:15/0 = 0
16:15/0 = 0
17:15/0 = 0
18:15/0 = 0
19:15/0 = 0
20:15/0 = 0
21:15/0 = 0
22:15/0 = 0
23:15/0 = 0
24:15/0 = 0
25:15/0 = 0
26:15/0 = 0
27:15/0 = 0
0:16/0 = 0
1:16/0 = 0
2:16/0 = 0
3:16/0 = 0
4:16/0 = 0
5:16/0 = 0
6:16/0 = 0
7:16/0 = 0
8:16/0 = 0
9:16/0 = 0
10:16/0 = 0
11:16/0 = 0
12:16/0 = 0
13:16/0 = 0
14:16/0 = 0
15:16/0 = 0
16:16/0 = 0
17:16/0 = 0
18:16/0 = 0
19:16/0 = 0
20:16/0 = 0
21:16/0 = 0
22:16/0 = 0
23:16/0 = 0
24:16/0 = 0
25:16/0 = 0
26:16/0 = 0
27:16/0 = 0
0:17/0 = 0
1:17/0 = 0
3:17/0 = 0
4:17/0 = 0
8:17/0 = 0
9:17/0 = 0
10:17/0 = 0
11:17/0 = 0
12:17/0 = 0
13:17/0 = 0
14:17/0 = 0
15:17/0 = 0
16:17/0 = 0
17:17/0 = 0
18:17/0 = 0
19:17/0 = 0
20:17/0 = 0
21:17/0 = 0
22:17/0 = 0
23:17/0 = 0
24:17/0 = 0
25:17/0 = 0
26:17/0 = 0
27:17/0 = 0
0:18/0 = 0
1:18/0 = 0
2:18/0 = 0
3:18/0 = 0
4:18/0 = 0
5:18/0 = 0
6:18/0 = 0
10:18/0 = 0
11:18/0 = 0
12:18/0 = 0
13:18/0 = 0
14:18/0 = 0
15:18/0 = 0
16:18/0 = 0
17:18/0 = 0
18:18/0 = 0
19:18/0 = 0
20:18/0 = 0
21:18/0 = 0
22:18/0 = 0
23:18/0 = 0
24:18/0 = 0
25:18/0 = 0
26:18/0 = 0
0:19/0 = 0
1:19/0 = 0
2:19/0 = 0
3:19/0 = 0
4:19/0 = 0
5:19/0 = 0
6:19/0 = 0
7:19/0 = 0
10:19/0 = 0
11:19/0 = 0
12:19/0 = 0
13:19/0 = 0
14:19/0 = 0
15:19/0 = 0
16:19/0 = 0
17:19/0 = 0
18:19/0 = 0
19:19/0 = 0
21:19/0 = 0
22:19/0 = 0
23:19/0 = 0
24:19/0 = 0
25:19/0 = 0
26:19/0 = 0
27:19/0 = 0
0:20/0 = 0
1:20/0 = 0
2:20/0 = 0
3:20/0 = 0
4:20/0 = 0
5:20/0 = 0
6:20/0 = 0
7:20/0 = 0
10:20/0 = 0
11:20/0 = 0
12:20/0 = 0
13:20/0 = 0
14:20/0 = 0
15:20/0 = 0
16:20/0 = 0
17:20/0 = 0
18:20/0 = 0
19:20/0 = 0
20:20/0 = 0
21:20/0 = 0
22:20/0 = 0
23:20/0 = 0
24:20/0 = 0
25:20/0 = 0
26:20/0 = 0
27:20/0 = 0
0:21/0 = 0
1:21/0 = 0
2:21/0 = 0
3:21/0 = 0
4:21/0 = 0
5:21/0 = 0
6:21/0 = 0
7:21/0 = 0
8:21/0 = 0
9:21/0 = 0
10:21/0 = 0
11:21/0 = 0
12:21/0 = 0
13:21/0 = 0
14:21/0 = 0
15:21/0 = 0
16:21/0 = 0
17:21/0 = 0
18:21/0 = 0
19:21/0 = 0
20:21/0 = 0
21:21/0 = 0
22:21/0 = 0
23:21/0 = 0
24:21/0 = 0
25:21/0 = 0
26:21/0 = 0
27:21/0 = 0
0:22/0 = 0
1:22/0 = 0
2:22/0 = 0
3:22/0 = 0
4:22/0 = 0
5:22/0 = 0
6:22/0 = 0
8:22/0 = 0
9:22/0 = 0
10:22/0 = 0
11:22/0 = 0
12:22/0 = 0
13:22/0 = 0
14:22/0 = 0
15:22/0 = 0
16:22/0 = 0
17:22/0 = 0
18:22/0 = 0
19:22/0 = 0
20:22/0 = 0
21:22/0 = 0
22:22/0 = 0
23:22/0 = 0
24:22/0 = 0
25:22/0 = 0
26:22/0 = 0
27:22/0 = 0
0:23/0 = 0
1:23/0 = 0
2:23/0 = 0
3:23/0 = 0
4:23/0 = 0
5:23/0 = 0
6:23/0 = 0
7:23/0 = 0
8:23/0 = 0
9:23/0 = 0
10:23/0 = 0
11:23/0 = 0
12:23/0 = 0
13:23/0 = 0
14:23/0 = 0
15:23/0 = 0
16:23/0 = 0
17:23/0 = 0
18:23/0 = 0
19:23/0 = 0
20:23/0 = 0
21:23/0 = 0
22:23/0 = 0
23:23/0 = 0
24:23/0 = 0
25:23/0 = 0
26:23/0 = 0
27:23/0 = 0
0:24/0 = 0
1:24/0 = 0
2:24/0 = 0
3:24/0 = 0
4:24/0 = 0
5:24/0 = 0
7:24/0 = 0
8:24/0 = 0
9:24/0 = 0
10:24/0 = 0
11:24/0 = 0
12:24/0 = 0
13:24/0 = 0
14:24/0 = 0
15:24/0 = 0
16:24/0 = 0
17:24/0 = 0
18:24/0 = 0
19:24/0 = 0
20:24/0 = 0
21:24/0 = 0
22:24/0 = 0
23:24/0 = 0
24:24/0 = 0
25:24/0 = 0
26:24/0 = 0
27:24/0 = 0
0:25/0 = 0
1:25/0 = 0
2:25/0 = 0
3:25/0 = 0
4:25/0 = 0
5:25/0 = 0
6:25/0 = 0
7:25/0 = 0
8:25/0 = 0
9:25/0 = 0
10:25/0 = 0
11:25/0 = 0
12:25/0 = 0
13:25/0 = 0
14:25/0 = 0
15:25/0 = 0
16:25/0 = 0
17:25/0 = 0
18:25/0 = 0
19:25/0 = 0
20:25/0 = 0
21:25/0 = 0
22:25/0 = 0
23:25/0 = 0
24:25/0 = 0
25:25/0 = 0
26:25/0 = 0
27:25/0 = 0
0:26/0 = 0
1:26/0 = 0
2:26/0 = 0
3:26/0 = 0
4:26/0 = 0
5:26/0 = 0
6:26/0 = 0
7:26/0 = 0
8:26/0 = 0
9:26/0 = 0
10:26/0 = 0
12:26/0 = 0
13:26/0 = 0
14:26/0 = 0
15:26/0 = 0
16:26/0 = 0
17:26/0 = 0
18:26/0 = 0
19:26/0 = 0
20:26/0 = 0
21:26/0 = 0
22:26/0 = 0
23:26/0 = 0
24:26/0 = 0
25:26/0 = 0
26:26/0 = 0
27:26/0 = 0
0:27/0 = 0
1:27/0 = 0
2:27/0 = 0
3:27/0 = 0
4:27/0 = 0
5:27/0 = 0
6:27/0 = 0
7:27/0 = 0
8:27/0 = 0
10:27/0 = 0
12:27/0 = 0
13:27/0 = 0
14:27/0 = 0
15:27/0 = 0
16:27/0 = 0
17:27/0 = 0
18:27/0 = 0
19:27/0 = 0
20:27/0 = 0
21:27/0 = 0
22:27/0 = 0
23:27/0 = 0
24:27/0 = 0
25:27/0 = 0
26:27/0 = 0
27:27/0 = 0
0:28/0 = 0
1:28/0 = 0
2:28/0 = 0
3:28/0 = 0
4:28/0 = 0
5:28/0 = 0
6:28/0 = 0
7:28/0 = 0
8:28/0 = 0
9:28/0 = 0
10:28/0 = 0
12:28/0 = 0
13:28/0 = 0
14:28/0 = 0
15:28/0 = 0
16:28/0 = 0
17:28/0 = 0
18:28/0 = 0
19:28/0 = 0
20:28/0 = 0
21:28/0 = 0
22:28/0 = 0
23:28/0 = 0
24:28/0 = 0
25:28/0 = 0
26:28/0 = 0
27:28/0 = 0
0:29/0 = 0
1:29/0 = 0
2:29/0 = 0
3:29/0 = 0
4:29/0 = 0
5:29/0 = 0
6:29/0 = 0
7:29/0 = 0
8:29/0 = 0
9:29/0 = 0
10:29/0 = 0
11:29/0 = 0
12:29/0 = 0
13:29/0 = 0
14:29/0 = 0
15:29/0 = 0
16:29/0 = 0
17:29/0 = 0
18:29/0 = 0
19:29/0 = 0
20:29/0 = 0
21:29/0 = 0
22:29/0 = 0
23:29/0 = 0
24:29/0 = 0
25:29/0 = 0
26:29/0 = 0
27:29/0 = 0
9:18/0 = 0

[sub_resource type="TileSet" id="TileSet_lm52a"]
tile_size = Vector2i(32, 32)
sources/2 = SubResource("TileSetAtlasSource_08olj")

[node name="Arena" type="TileMap"]
tile_set = SubResource("TileSet_lm52a")
cell_quadrant_size = 3
format = 2
layer_0/name = "Ground"
layer_0/tile_data = PackedInt32Array(0, 1310722, 1, 1, 1310722, 1, 6, 1310722, 1, 5, 1310722, 1, 4, 1310722, 1, 3, 1310722, 1, 2, 1310722, 1, 65536, 1310722, 1, -196619, 1310722, 1, -131083, 1310722, 1, -65547, 1310722, 1, -11, 1310722, 1, 65525, 1310722, 1, 131061, 1310722, 1, 196597, 1310722, 1, 262133, 1310722, 1, -196618, 1310722, 1, -131082, 1310722, 1, -65546, 1310722, 1, -10, 1310722, 1, 65526, 1310722, 1, 131062, 1310722, 1, 262134, 1310722, 1, 327670, 1310722, 1, -196617, 1310722, 1, -131081, 1310722, 1, -65545, 1310722, 1, -9, 1310722, 1, 65527, 1310722, 1, 131063, 1310722, 1, 196599, 1310722, 1, 262135, 1310722, 1, 327671, 1310722, 1, -196616, 1310722, 1, -131080, 1310722, 1, -65544, 1310722, 1, -8, 1310722, 1, 65528, 1310722, 1, 131064, 1310722, 1, 196600, 1310722, 1, 262136, 1310722, 1, 327672, 1310722, 1, -196615, 1310722, 1, -131079, 1310722, 1, -65543, 1310722, 1, -7, 1310722, 1, 65529, 1310722, 1, 131065, 1310722, 1, 196601, 1310722, 1, 262137, 1310722, 1, 327673, 1310722, 1, -196614, 1310722, 1, -131078, 1310722, 1, -65542, 1310722, 1, -6, 1310722, 1, 65530, 1310722, 1, 131066, 1310722, 1, 196602, 1310722, 1, 262138, 1310722, 1, 327674, 1310722, 1, -196613, 1310722, 1, -131077, 1310722, 1, -65541, 1310722, 1, -5, 1310722, 1, 65531, 1310722, 1, 131067, 1310722, 1, 196603, 1310722, 1, 262139, 1310722, 1, 327675, 1310722, 1, -196612, 1310722, 1, -131076, 1310722, 1, -65540, 1310722, 1, -4, 1310722, 1, 65532, 1310722, 1, 131068, 1310722, 1, 196604, 1310722, 1, 262140, 1310722, 1, 327676, 1310722, 1, -196611, 1310722, 1, -131075, 1310722, 1, -65539, 1310722, 1, -3, 1310722, 1, 65533, 1310722, 1, 131069, 1310722, 1, 196605, 1310722, 1, 262141, 1310722, 1, 327677, 1310722, 1, -196610, 1310722, 1, -131074, 1310722, 1, -65538, 1310722, 1, -2, 1310722, 1, 65534, 1310722, 1, 131070, 1310722, 1, 196606, 1310722, 1, 262142, 1310722, 1, 327678, 1310722, 1, -196609, 1310722, 1, -131073, 1310722, 1, -65537, 1310722, 1, -1, 1310722, 1, 65535, 1310722, 1, 131071, 1310722, 1, 196607, 1310722, 1, 262143, 1310722, 1, 327679, 1310722, 1, -262144, 1310722, 1, -196608, 1310722, 1, -131072, 1310722, 1, -65536, 1310722, 1, 131072, 1310722, 1, 196608, 1310722, 1, 262144, 1310722, 1, -262143, 1310722, 1, -196607, 1310722, 1, -131071, 1310722, 1, -65535, 1310722, 1, 65537, 1310722, 1, 131073, 1310722, 1, 196609, 1310722, 1, 262145, 1310722, 1, -262142, 1310722, 1, -196606, 1310722, 1, -131070, 1310722, 1, -65534, 1310722, 1, 65538, 1310722, 1, 131074, 1310722, 1, 196610, 1310722, 1, 262146, 1310722, 1, -262141, 1310722, 1, -196605, 1310722, 1, -131069, 1310722, 1, -65533, 1310722, 1, 65539, 1310722, 1, 131075, 1310722, 1, 196611, 1310722, 1, 262147, 1310722, 1, -262140, 1310722, 1, -196604, 1310722, 1, -131068, 1310722, 1, -65532, 1310722, 1, 65540, 1310722, 1, 131076, 1310722, 1, 196612, 1310722, 1, 262148, 1310722, 1, -262139, 1310722, 1, -196603, 1310722, 1, -131067, 1310722, 1, -65531, 1310722, 1, 65541, 1310722, 1, 131077, 1310722, 1, 196613, 1310722, 1, 262149, 1310722, 1, -262138, 1310722, 1, -196602, 1310722, 1, -131066, 1310722, 1, -65530, 1310722, 1, 65542, 1310722, 1, 131078, 1310722, 1, 196614, 1310722, 1, 262150, 1310722, 1, -262137, 1310722, 1, -196601, 1310722, 1, -131065, 1310722, 1, -65529, 1310722, 1, 7, 1310722, 1, 65543, 1310722, 1, 131079, 1310722, 1, 196615, 1310722, 1, 262151, 1310722, 1, -262136, 1310722, 1, -196600, 1310722, 1, -131064, 1310722, 1, -65528, 1310722, 1, 8, 1310722, 1, 131080, 1310722, 1, 196616, 1310722, 1, 262152, 1310722, 1, -262135, 1310722, 1, -196599, 1310722, 1, -131063, 1310722, 1, -65527, 1310722, 1, 9, 1310722, 1, 65545, 1310722, 1, 131081, 1310722, 1, 262153, 1310722, 1, 327669, 1310722, 1, 458741, 1310722, 1, 458742, 1310722, 1, 458743, 1310722, 1, 458744, 1310722, 1, 458745, 1310722, 1, 458746, 1310722, 1, 458747, 1310722, 1, 458748, 1310722, 1, 458749, 1310722, 1, 458750, 1310722, 1, 458751, 1310722, 1, 393216, 1310722, 1, 393217, 1310722, 1, 393218, 1310722, 1, 393219, 1310722, 1, 393220, 1310722, 1, 393221, 1310722, 1, 393222, 1310722, 1, 393223, 1310722, 1, 393224, 1310722, 1, 393225, 1310722, 1, 720885, 1310722, 1, 720886, 1310722, 1, 720887, 1310722, 1, 720888, 1310722, 1, 720889, 1310722, 1, 720890, 1310722, 1, 720891, 1310722, 1, 720892, 1310722, 1, 720893, 1310722, 1, 720894, 1310722, 1, 720895, 1310722, 1, 655360, 1310722, 1, 655361, 1310722, 1, 655362, 1310722, 1, 655363, 1310722, 1, 655364, 1310722, 1, 655365, 1310722, 1, 655366, 1310722, 1, 655367, 1310722, 1, 655368, 1310722, 1, 655369, 1310722, 1, 196598, 1310722, 1, 393206, 1310722, 1, 524278, 1310722, 1, 589814, 1310722, 1, 655350, 1310722, 1, 393207, 1310722, 1, 524279, 1310722, 1, 589815, 1310722, 1, 655351, 1310722, 1, 393208, 1310722, 1, 524280, 1310722, 1, 589816, 1310722, 1, 655352, 1310722, 1, 393209, 1310722, 1, 524281, 1310722, 1, 589817, 1310722, 1, 655353, 1310722, 1, 393210, 1310722, 1, 524282, 1310722, 1, 589818, 1310722, 1, 655354, 1310722, 1, 393211, 1310722, 1, 524283, 1310722, 1, 589819, 1310722, 1, 655355, 1310722, 1, 393212, 1310722, 1, 524284, 1310722, 1, 589820, 1310722, 1, 655356, 1310722, 1, 393213, 1310722, 1, 524285, 1310722, 1, 589821, 1310722, 1, 655357, 1310722, 1, 393214, 1310722, 1, 524286, 1310722, 1, 589822, 1310722, 1, 655358, 1310722, 1, 393215, 1310722, 1, 524287, 1310722, 1, 589823, 1310722, 1, 655359, 1310722, 1, 327680, 1310722, 1, 458752, 1310722, 1, 524288, 1310722, 1, 589824, 1310722, 1, 327681, 1310722, 1, 458753, 1310722, 1, 524289, 1310722, 1, 589825, 1310722, 1, 327682, 1310722, 1, 458754, 1310722, 1, 524290, 1310722, 1, 589826, 1310722, 1, 327683, 1310722, 1, 458755, 1310722, 1, 524291, 1310722, 1, 589827, 1310722, 1, 327684, 1310722, 1, 458756, 1310722, 1, 524292, 1310722, 1, 589828, 1310722, 1, 327685, 1310722, 1, 458757, 1310722, 1, 524293, 1310722, 1, 589829, 1310722, 1, 327686, 1310722, 1, 458758, 1310722, 1, 524294, 1310722, 1, 589830, 1310722, 1, 327687, 1310722, 1, 458759, 1310722, 1, 524295, 1310722, 1, 589831, 1310722, 1, 327688, 1310722, 1, 458760, 1310722, 1, 524296, 1310722, 1, 589832, 1310722, 1, 196617, 1310722, 1, 327689, 1310722, 1, 458761, 1310722, 1, 524297, 1310722, 1, 589833, 1310722, 1, 393205, 1310722, 1, 524277, 1310722, 1, 589813, 1310722, 1, 655349, 1310722, 1, -262134, 1310722, 1, -196598, 1310722, 1, -131062, 1310722, 1, -65526, 1310722, 1, 10, 1310722, 1, 65546, 1310722, 1, 131082, 1310722, 1, 196618, 1310722, 1, 262154, 1310722, 1, 327690, 1310722, 1, 393226, 1310722, 1, 458762, 1310722, 1, 524298, 1310722, 1, 589834, 1310722, 1, 655370, 1310722, 1, 65544, 1310722, 1, -262129, 1310722, 1, -196592, 1310722, 1, -131056, 1310722, 1, -65520, 1310722, 1, 16, 1310722, 1, 65552, 1310722, 1, 131088, 1310722, 1, 196624, 1310722, 1, 262160, 1310722, 1, 327696, 1310722, 1, 393232, 1310722, 1, 458768, 1310722, 1, 524304, 1310722, 1, 589840, 1310722, 1, 655376, 1310722, 1, 720912, 1310722, 1, -327699, 1310722, 1, -262163, 1310722, 1, -196627, 1310722, 1, -131091, 1310722, 1, -65555, 1310722, 1, -19, 1310722, 1, 65517, 1310722, 1, 131053, 1310722, 1, 196589, 1310722, 1, 262125, 1310722, 1, 327661, 1310722, 1, 393197, 1310722, 1, 458733, 1310722, 1, 524269, 1310722, 1, 589805, 1310722, 1, 655341, 1310722, 1, 720877, 1310722, 1, 786413, 1310722, 1, 851949, 1310722, 1, 917485, 1310722, 1, 983021, 1310722, 1, 1048557, 1310722, 1, 1114093, 1310722, 1, 1179629, 1310722, 1, 1245165, 1310722, 1, 1310701, 1310722, 1, 1376237, 1310722, 1, 1441773, 1310722, 1, 1507309, 1310722, 1, -327698, 1310722, 1, -262162, 1310722, 1, -196626, 1310722, 1, -131090, 1310722, 1, -65554, 1310722, 1, -18, 1310722, 1, 65518, 1310722, 1, 131054, 1310722, 1, 196590, 1310722, 1, 262126, 1310722, 1, 327662, 1310722, 1, 393198, 1310722, 1, 458734, 1310722, 1, 524270, 1310722, 1, 589806, 1310722, 1, 655342, 1310722, 1, 720878, 1310722, 1, 786414, 1310722, 1, 851950, 1310722, 1, 917486, 1310722, 1, 983022, 1310722, 1, 1048558, 1310722, 1, 1114094, 1310722, 1, 1179630, 1310722, 1, 1245166, 1310722, 1, 1310702, 1310722, 1, 1376238, 1310722, 1, 1441774, 1310722, 1, 1507310, 1310722, 1, -327697, 1310722, 1, -262161, 1310722, 1, -196625, 1310722, 1, -131089, 1310722, 1, -65553, 1310722, 1, -17, 1310722, 1, 65519, 1310722, 1, 131055, 1310722, 1, 196591, 1310722, 1, 262127, 1310722, 1, 327663, 1310722, 1, 393199, 1310722, 1, 458735, 1310722, 1, 524271, 1310722, 1, 589807, 1310722, 1, 655343, 1310722, 1, 720879, 1310722, 1, 786415, 1310722, 1, 851951, 1310722, 1, 917487, 1310722, 1, 983023, 1310722, 1, 1048559, 1310722, 1, 1114095, 1310722, 1, 1179631, 1310722, 1, 1245167, 1310722, 1, 1310703, 1310722, 1, 1376239, 1310722, 1, 1441775, 1310722, 1, 1507311, 1310722, 1, -327696, 1310722, 1, -262160, 1310722, 1, -196624, 1310722, 1, -131088, 1310722, 1, -65552, 1310722, 1, -16, 1310722, 1, 65520, 1310722, 1, 131056, 1310722, 1, 196592, 1310722, 1, 262128, 1310722, 1, 327664, 1310722, 1, 393200, 1310722, 1, 458736, 1310722, 1, 524272, 1310722, 1, 589808, 1310722, 1, 655344, 1310722, 1, 720880, 1310722, 1, 786416, 1310722, 1, 851952, 1310722, 1, 917488, 1310722, 1, 983024, 1310722, 1, 1048560, 1310722, 1, 1114096, 1310722, 1, 1179632, 1310722, 1, 1245168, 1310722, 1, 1310704, 1310722, 1, 1376240, 1310722, 1, 1441776, 1310722, 1, 1507312, 1310722, 1, -327695, 1310722, 1, -262159, 1310722, 1, -196623, 1310722, 1, -131087, 1310722, 1, -65551, 1310722, 1, -15, 1310722, 1, 65521, 1310722, 1, 131057, 1310722, 1, 196593, 1310722, 1, 262129, 1310722, 1, 327665, 1310722, 1, 393201, 1310722, 1, 458737, 1310722, 1, 524273, 1310722, 1, 589809, 1310722, 1, 655345, 1310722, 1, 720881, 1310722, 1, 786417, 1310722, 1, 851953, 1310722, 1, 917489, 1310722, 1, 983025, 1310722, 1, 1048561, 1310722, 1, 1114097, 1310722, 1, 1179633, 1310722, 1, 1245169, 1310722, 1, 1310705, 1310722, 1, 1376241, 1310722, 1, 1441777, 1310722, 1, 1507313, 1310722, 1, -327694, 1310722, 1, -262158, 1310722, 1, -196622, 1310722, 1, -131086, 1310722, 1, -65550, 1310722, 1, -14, 1310722, 1, 65522, 1310722, 1, 131058, 1310722, 1, 196594, 1310722, 1, 262130, 1310722, 1, 327666, 1310722, 1, 393202, 1310722, 1, 458738, 1310722, 1, 524274, 1310722, 1, 589810, 1310722, 1, 655346, 1310722, 1, 720882, 1310722, 1, 786418, 1310722, 1, 851954, 1310722, 1, 917490, 1310722, 1, 983026, 1310722, 1, 1048562, 1310722, 1, 1114098, 1310722, 1, 1179634, 1310722, 1, 1245170, 1310722, 1, 1310706, 1310722, 1, 1376242, 1310722, 1, 1441778, 1310722, 1, 1507314, 1310722, 1, -327693, 1310722, 1, -262157, 1310722, 1, -196621, 1310722, 1, -131085, 1310722, 1, -65549, 1310722, 1, -13, 1310722, 1, 65523, 1310722, 1, 131059, 1310722, 1, 196595, 1310722, 1, 262131, 1310722, 1, 327667, 1310722, 1, 393203, 1310722, 1, 458739, 1310722, 1, 524275, 1310722, 1, 589811, 1310722, 1, 655347, 1310722, 1, 720883, 1310722, 1, 786419, 1310722, 1, 851955, 1310722, 1, 917491, 1310722, 1, 983027, 1310722, 1, 1048563, 1310722, 1, 1114099, 1310722, 1, 1179635, 1310722, 1, 1245171, 1310722, 1, 1310707, 1310722, 1, 1376243, 1310722, 1, 1441779, 1310722, 1, 1507315, 1310722, 1, -327692, 1310722, 1, -262156, 1310722, 1, -196620, 1310722, 1, -131084, 1310722, 1, -65548, 1310722, 1, -12, 1310722, 1, 65524, 1310722, 1, 131060, 1310722, 1, 196596, 1310722, 1, 262132, 1310722, 1, 327668, 1310722, 1, 393204, 1310722, 1, 458740, 1310722, 1, 524276, 1310722, 1, 589812, 1310722, 1, 655348, 1310722, 1, 720884, 1310722, 1, 786420, 1310722, 1, 851956, 1310722, 1, 917492, 1310722, 1, 983028, 1310722, 1, 1048564, 1310722, 1, 1114100, 1310722, 1, 1179636, 1310722, 1, 1245172, 1310722, 1, 1310708, 1310722, 1, 1376244, 1310722, 1, 1441780, 1310722, 1, 1507316, 1310722, 1, -327691, 1310722, 1, -262155, 1310722, 1, 786421, 1310722, 1, 851957, 1310722, 1, 917493, 1310722, 1, 983029, 1310722, 1, 1048565, 1310722, 1, 1114101, 1310722, 1, 1179637, 1310722, 1, 1245173, 1310722, 1, 1310709, 1310722, 1, 1376245, 1310722, 1, 1441781, 1310722, 1, 1507317, 1310722, 1, -327690, 1310722, 1, -262154, 1310722, 1, 786422, 1310722, 1, 851958, 1310722, 1, 917494, 1310722, 1, 983030, 1310722, 1, 1048566, 1310722, 1, 1114102, 1310722, 1, 1179638, 1310722, 1, 1245174, 1310722, 1, 1310710, 1310722, 1, 1376246, 1310722, 1, 1441782, 1310722, 1, 1507318, 1310722, 1, -327689, 1310722, 1, -262153, 1310722, 1, 786423, 1310722, 1, 851959, 1310722, 1, 917495, 1310722, 1, 983031, 1310722, 1, 1048567, 1310722, 1, 1114103, 1310722, 1, 1179639, 1310722, 1, 1245175, 1310722, 1, 1310711, 1310722, 1, 1376247, 1310722, 1, 1441783, 1310722, 1, 1507319, 1310722, 1, -327688, 1310722, 1, -262152, 1310722, 1, 786424, 1310722, 1, 851960, 1310722, 1, 917496, 1310722, 1, 983032, 1310722, 1, 1048568, 1310722, 1, 1114104, 1310722, 1, 1179640, 1310722, 1, 1245176, 1310722, 1, 1310712, 1310722, 1, 1376248, 1310722, 1, 1441784, 1310722, 1, 1507320, 1310722, 1, -327687, 1310722, 1, -262151, 1310722, 1, 786425, 1310722, 1, 851961, 1310722, 1, 917497, 1310722, 1, 983033, 1310722, 1, 1048569, 1310722, 1, 1114105, 1310722, 1, 1179641, 1310722, 1, 1245177, 1310722, 1, 1310713, 1310722, 1, 1376249, 1310722, 1, 1441785, 1310722, 1, 1507321, 1310722, 1, -327686, 1310722, 1, -262150, 1310722, 1, 786426, 1310722, 1, 851962, 1310722, 1, 917498, 1310722, 1, 983034, 1310722, 1, 1048570, 1310722, 1, 1114106, 1310722, 1, 1179642, 1310722, 1, 1245178, 1310722, 1, 1310714, 1310722, 1, 1376250, 1310722, 1, 1441786, 1310722, 1, 1507322, 1310722, 1, -327685, 1310722, 1, -262149, 1310722, 1, 786427, 1310722, 1, 851963, 1310722, 1, 917499, 1310722, 1, 983035, 1310722, 1, 1048571, 1310722, 1, 1114107, 1310722, 1, 1179643, 1310722, 1, 1245179, 1310722, 1, 1310715, 1310722, 1, 1376251, 1310722, 1, 1441787, 1310722, 1, 1507323, 1310722, 1, -327684, 1310722, 1, -262148, 1310722, 1, 786428, 1310722, 1, 851964, 1310722, 1, 917500, 1310722, 1, 983036, 1310722, 1, 1048572, 1310722, 1, 1114108, 1310722, 1, 1179644, 1310722, 1, 1245180, 1310722, 1, 1310716, 1310722, 1, 1376252, 1310722, 1, 1441788, 1310722, 1, 1507324, 1310722, 1, -327683, 1310722, 1, -262147, 1310722, 1, 786429, 1310722, 1, 851965, 1310722, 1, 917501, 1310722, 1, 983037, 1310722, 1, 1048573, 1310722, 1, 1114109, 1310722, 1, 1179645, 1310722, 1, 1245181, 1310722, 1, 1310717, 1310722, 1, 1376253, 1310722, 1, 1441789, 1310722, 1, 1507325, 1310722, 1, -327682, 1310722, 1, -262146, 1310722, 1, 786430, 1310722, 1, 851966, 1310722, 1, 917502, 1310722, 1, 983038, 1310722, 1, 1048574, 1310722, 1, 1114110, 1310722, 1, 1179646, 1310722, 1, 1245182, 1310722, 1, 1310718, 1310722, 1, 1376254, 1310722, 1, 1441790, 1310722, 1, 1507326, 1310722, 1, -327681, 1310722, 1, -262145, 1310722, 1, 786431, 1310722, 1, 851967, 1310722, 1, 917503, 1310722, 1, 983039, 1310722, 1, 1048575, 1310722, 1, 1114111, 1310722, 1, 1179647, 1310722, 1, 1245183, 1310722, 1, 1310719, 1310722, 1, 1376255, 1310722, 1, 1441791, 1310722, 1, 1507327, 1310722, 1, -393216, 1310722, 1, -327680, 1310722, 1, 720896, 1310722, 1, 786432, 1310722, 1, 851968, 1310722, 1, 917504, 1310722, 1, 983040, 1310722, 1, 1048576, 1310722, 1, 1114112, 1310722, 1, 1179648, 1310722, 1, 1245184, 1310722, 1, 1310720, 1310722, 1, 1376256, 1310722, 1, 1441792, 1310722, 1, -393215, 1310722, 1, -327679, 1310722, 1, 720897, 1310722, 1, 786433, 1310722, 1, 851969, 1310722, 1, 917505, 1310722, 1, 983041, 1310722, 1, 1048577, 1310722, 1, 1114113, 1310722, 1, 1179649, 1310722, 1, 1245185, 1310722, 1, 1310721, 1310722, 1, 1376257, 1310722, 1, 1441793, 1310722, 1, -393214, 1310722, 1, -327678, 1310722, 1, 720898, 1310722, 1, 786434, 1310722, 1, 851970, 1310722, 1, 917506, 1310722, 1, 983042, 1310722, 1, 1048578, 1310722, 1, 1114114, 1310722, 1, 1179650, 1310722, 1, 1245186, 1310722, 1, 1310722, 1310722, 1, 1376258, 1310722, 1, 1441794, 1310722, 1, -393213, 1310722, 1, -327677, 1310722, 1, 720899, 1310722, 1, 786435, 1310722, 1, 851971, 1310722, 1, 917507, 1310722, 1, 983043, 1310722, 1, 1048579, 1310722, 1, 1114115, 1310722, 1, 1179651, 1310722, 1, 1245187, 1310722, 1, 1310723, 1310722, 1, 1376259, 1310722, 1, 1441795, 1310722, 1, -393212, 1310722, 1, -327676, 1310722, 1, 720900, 1310722, 1, 786436, 1310722, 1, 851972, 1310722, 1, 917508, 1310722, 1, 983044, 1310722, 1, 1048580, 1310722, 1, 1114116, 1310722, 1, 1179652, 1310722, 1, 1245188, 1310722, 1, 1310724, 1310722, 1, 1376260, 1310722, 1, 1441796, 1310722, 1, -393211, 1310722, 1, -327675, 1310722, 1, 720901, 1310722, 1, 786437, 1310722, 1, 851973, 1310722, 1, 917509, 1310722, 1, 983045, 1310722, 1, 1048581, 1310722, 1, 1114117, 1310722, 1, 1179653, 1310722, 1, 1245189, 1310722, 1, 1310725, 1310722, 1, 1376261, 1310722, 1, 1441797, 1310722, 1, -393210, 1310722, 1, -327674, 1310722, 1, 720902, 1310722, 1, 786438, 1310722, 1, 851974, 1310722, 1, 917510, 1310722, 1, 983046, 1310722, 1, 1048582, 1310722, 1, 1114118, 1310722, 1, 1179654, 1310722, 1, 1245190, 1310722, 1, 1310726, 1310722, 1, 1376262, 1310722, 1, 1441798, 1310722, 1, -393209, 1310722, 1, -327673, 1310722, 1, 720903, 1310722, 1, 786439, 1310722, 1, 851975, 1310722, 1, 917511, 1310722, 1, 983047, 1310722, 1, 1048583, 1310722, 1, 1114119, 1310722, 1, 1179655, 1310722, 1, 1245191, 1310722, 1, 1310727, 1310722, 1, 1376263, 1310722, 1, 1441799, 1310722, 1, -393208, 1310722, 1, -327672, 1310722, 1, 720904, 1310722, 1, 786440, 1310722, 1, 851976, 1310722, 1, 917512, 1310722, 1, 983048, 1310722, 1, 1048584, 1310722, 1, 1114120, 1310722, 1, 1179656, 1310722, 1, 1245192, 1310722, 1, 1310728, 1310722, 1, 1376264, 1310722, 1, 1441800, 1310722, 1, -393207, 1310722, 1, -327671, 1310722, 1, 720905, 1310722, 1, 786441, 1310722, 1, 851977, 1310722, 1, 917513, 1310722, 1, 983049, 1310722, 1, 1048585, 1310722, 1, 1114121, 1310722, 1, 1179657, 1310722, 1, 1245193, 1310722, 1, 1310729, 1310722, 1, 1376265, 1310722, 1, 1441801, 1310722, 1, -393206, 1310722, 1, -327670, 1310722, 1, 720906, 1310722, 1, 786442, 1310722, 1, 851978, 1310722, 1, 917514, 1310722, 1, 983050, 1310722, 1, 1048586, 1310722, 1, 1114122, 1310722, 1, 1179658, 1310722, 1, 1245194, 1310722, 1, 1310730, 1310722, 1, 1376266, 1310722, 1, 1441802, 1310722, 1, -393205, 1310722, 1, -327669, 1310722, 1, -262133, 1310722, 1, -196597, 1310722, 1, -131061, 1310722, 1, -65525, 1310722, 1, 11, 1310722, 1, 65547, 1310722, 1, 131083, 1310722, 1, 196619, 1310722, 1, 262155, 1310722, 1, 327691, 1310722, 1, 393227, 1310722, 1, 458763, 1310722, 1, 524299, 1310722, 1, 589835, 1310722, 1, 655371, 1310722, 1, 720907, 1310722, 1, 786443, 1310722, 1, 851979, 1310722, 1, 917515, 1310722, 1, 983051, 1310722, 1, 1048587, 1310722, 1, 1114123, 1310722, 1, 1179659, 1310722, 1, 1245195, 1310722, 1, 1310731, 1310722, 1, 1376267, 1310722, 1, 1441803, 1310722, 1, -393204, 1310722, 1, -327668, 1310722, 1, -262132, 1310722, 1, -196596, 1310722, 1, -131060, 1310722, 1, -65524, 1310722, 1, 12, 1310722, 1, 65548, 1310722, 1, 131084, 1310722, 1, 196620, 1310722, 1, 262156, 1310722, 1, 327692, 1310722, 1, 393228, 1310722, 1, 458764, 1310722, 1, 524300, 1310722, 1, 589836, 1310722, 1, 655372, 1310722, 1, 720908, 1310722, 1, 786444, 1310722, 1, 851980, 1310722, 1, 917516, 1310722, 1, 983052, 1310722, 1, 1048588, 1310722, 1, 1114124, 1310722, 1, 1179660, 1310722, 1, 1245196, 1310722, 1, 1310732, 1310722, 1, 1376268, 1310722, 1, 1441804, 1310722, 1, -393203, 1310722, 1, -327667, 1310722, 1, -262131, 1310722, 1, -196595, 1310722, 1, -131059, 1310722, 1, -65523, 1310722, 1, 13, 1310722, 1, 65549, 1310722, 1, 131085, 1310722, 1, 196621, 1310722, 1, 262157, 1310722, 1, 327693, 1310722, 1, 393229, 1310722, 1, 458765, 1310722, 1, 524301, 1310722, 1, 589837, 1310722, 1, 655373, 1310722, 1, 720909, 1310722, 1, 786445, 1310722, 1, 851981, 1310722, 1, 917517, 1310722, 1, 983053, 1310722, 1, 1048589, 1310722, 1, 1114125, 1310722, 1, 1179661, 1310722, 1, 1245197, 1310722, 1, 1310733, 1310722, 1, 1376269, 1310722, 1, 1441805, 1310722, 1, -393202, 1310722, 1, -327666, 1310722, 1, -262130, 1310722, 1, -196594, 1310722, 1, -131058, 1310722, 1, -65522, 1310722, 1, 14, 1310722, 1, 65550, 1310722, 1, 131086, 1310722, 1, 196622, 1310722, 1, 262158, 1310722, 1, 327694, 1310722, 1, 393230, 1310722, 1, 458766, 1310722, 1, 524302, 1310722, 1, 589838, 1310722, 1, 655374, 1310722, 1, 720910, 1310722, 1, 786446, 1310722, 1, 851982, 1310722, 1, 917518, 1310722, 1, 983054, 1310722, 1, 1048590, 1310722, 1, 1114126, 1310722, 1, 1179662, 1310722, 1, 1245198, 1310722, 1, 1310734, 1310722, 1, 1376270, 1310722, 1, 1441806, 1310722, 1, -393201, 1310722, 1, -327665, 1310722, 1, -196593, 1310722, 1, -131057, 1310722, 1, -65521, 1310722, 1, 15, 1310722, 1, 65551, 1310722, 1, 131087, 1310722, 1, 196623, 1310722, 1, 262159, 1310722, 1, 327695, 1310722, 1, 393231, 1310722, 1, 458767, 1310722, 1, 524303, 1310722, 1, 589839, 1310722, 1, 655375, 1310722, 1, 720911, 1310722, 1, 786447, 1310722, 1, 851983, 1310722, 1, 917519, 1310722, 1, 983055, 1310722, 1, 1048591, 1310722, 1, 1114127, 1310722, 1, 1179663, 1310722, 1, 1245199, 1310722, 1, 1310735, 1310722, 1, 1376271, 1310722, 1, 1441807, 1310722, 1, -393200, 1310722, 1, -327664, 1310722, 1, -262128, 1310722, 1, 786448, 1310722, 1, 851984, 1310722, 1, 917520, 1310722, 1, 983056, 1310722, 1, 1048592, 1310722, 1, 1114128, 1310722, 1, 1179664, 1310722, 1, 1245200, 1310722, 1, 1310736, 1310722, 1, 1376272, 1310722, 1, 1441808, 1310722, 1, -393199, 1310722, 1, -327663, 1310722, 1, -262127, 1310722, 1, -196591, 1310722, 1, -131055, 1310722, 1, -65519, 1310722, 1, 17, 1310722, 1, 65553, 1310722, 1, 131089, 1310722, 1, 196625, 1310722, 1, 262161, 1310722, 1, 327697, 1310722, 1, 393233, 1310722, 1, 458769, 1310722, 1, 524305, 1310722, 1, 589841, 1310722, 1, 655377, 1310722, 1, 720913, 1310722, 1, 786449, 1310722, 1, 851985, 1310722, 1, 917521, 1310722, 1, 983057, 1310722, 1, 1048593, 1310722, 1, 1114129, 1310722, 1, 1179665, 1310722, 1, 1245201, 1310722, 1, 1310737, 1310722, 1, 1376273, 1310722, 1, 1441809, 1310722, 1, -393198, 1310722, 1, -327662, 1310722, 1, -262126, 1310722, 1, -196590, 1310722, 1, -131054, 1310722, 1, -65518, 1310722, 1, 18, 1310722, 1, 65554, 1310722, 1, 131090, 1310722, 1, 196626, 1310722, 1, 262162, 1310722, 1, 327698, 1310722, 1, 393234, 1310722, 1, 458770, 1310722, 1, 524306, 1310722, 1, 589842, 1310722, 1, 655378, 1310722, 1, 720914, 1310722, 1, 786450, 1310722, 1, 851986, 1310722, 1, 917522, 1310722, 1, 983058, 1310722, 1, 1048594, 1310722, 1, 1114130, 1310722, 1, 1179666, 1310722, 1, 1245202, 1310722, 1, 1310738, 1310722, 1, 1376274, 1310722, 1, 1441810, 1310722, 1, -393197, 1310722, 1, -327661, 1310722, 1, -262125, 1310722, 1, -196589, 1310722, 1, -131053, 1310722, 1, -65517, 1310722, 1, 19, 1310722, 1, 65555, 1310722, 1, 131091, 1310722, 1, 196627, 1310722, 1, 262163, 1310722, 1, 327699, 1310722, 1, 393235, 1310722, 1, 458771, 1310722, 1, 524307, 1310722, 1, 589843, 1310722, 1, 655379, 1310722, 1, 720915, 1310722, 1, 786451, 1310722, 1, 851987, 1310722, 1, 917523, 1310722, 1, 983059, 1310722, 1, 1048595, 1310722, 1, 1114131, 1310722, 1, 1179667, 1310722, 1, 1245203, 1310722, 1, 1310739, 1310722, 1, 1376275, 1310722, 1, 1441811, 1310722, 1, -393196, 1310722, 1, -327660, 1310722, 1, -262124, 1310722, 1, -196588, 1310722, 1, -131052, 1310722, 1, -65516, 1310722, 1, 20, 1310722, 1, 65556, 1310722, 1, 131092, 1310722, 1, 196628, 1310722, 1, 262164, 1310722, 1, 327700, 1310722, 1, 393236, 1310722, 1, 458772, 1310722, 1, 524308, 1310722, 1, 589844, 1310722, 1, 655380, 1310722, 1, 720916, 1310722, 1, 786452, 1310722, 1, 851988, 1310722, 1, 917524, 1310722, 1, 983060, 1310722, 1, 1048596, 1310722, 1, 1114132, 1310722, 1, 1179668, 1310722, 1, 1245204, 1310722, 1, 1310740, 1310722, 1, 1376276, 1310722, 1, 1441812, 1310722, 1, -393195, 1310722, 1, -327659, 1310722, 1, -262123, 1310722, 1, -196587, 1310722, 1, -131051, 1310722, 1, -65515, 1310722, 1, 21, 1310722, 1, 65557, 1310722, 1, 131093, 1310722, 1, 196629, 1310722, 1, 262165, 1310722, 1, 327701, 1310722, 1, 393237, 1310722, 1, 458773, 1310722, 1, 524309, 1310722, 1, 589845, 1310722, 1, 655381, 1310722, 1, 720917, 1310722, 1, 786453, 1310722, 1, 851989, 1310722, 1, 917525, 1310722, 1, 983061, 1310722, 1, 1048597, 1310722, 1, 1114133, 1310722, 1, 1179669, 1310722, 1, 1245205, 1310722, 1, 1310741, 1310722, 1, 1376277, 1310722, 1, 1441813, 1310722, 1, -393194, 1310722, 1, -327658, 1310722, 1, -262122, 1310722, 1, -196586, 1310722, 1, -131050, 1310722, 1, -65514, 1310722, 1, 22, 1310722, 1, 65558, 1310722, 1, 131094, 1310722, 1, 196630, 1310722, 1, 262166, 1310722, 1, 327702, 1310722, 1, 393238, 1310722, 1, 458774, 1310722, 1, 524310, 1310722, 1, 589846, 1310722, 1, 655382, 1310722, 1, 720918, 1310722, 1, 786454, 1310722, 1, 851990, 1310722, 1, 917526, 1310722, 1, 983062, 1310722, 1, 1048598, 1310722, 1, 1114134, 1310722, 1, 1179670, 1310722, 1, 1245206, 1310722, 1, 1310742, 1310722, 1, 1376278, 1310722, 1, 1441814, 1310722, 1, -393193, 1310722, 1, -327657, 1310722, 1, -262121, 1310722, 1, -196585, 1310722, 1, -131049, 1310722, 1, -65513, 1310722, 1, 23, 1310722, 1, 65559, 1310722, 1, 131095, 1310722, 1, 196631, 1310722, 1, 262167, 1310722, 1, 327703, 1310722, 1, 393239, 1310722, 1, 458775, 1310722, 1, 524311, 1310722, 1, 589847, 1310722, 1, 655383, 1310722, 1, 720919, 1310722, 1, 786455, 1310722, 1, 851991, 1310722, 1, 917527, 1310722, 1, 983063, 1310722, 1, 1048599, 1310722, 1, 1114135, 1310722, 1, 1179671, 1310722, 1, 1245207, 1310722, 1, 1310743, 1310722, 1, 1376279, 1310722, 1, 1441815, 1310722, 1, -393192, 1310722, 1, -327656, 1310722, 1, -262120, 1310722, 1, -196584, 1310722, 1, -131048, 1310722, 1, -65512, 1310722, 1, 24, 1310722, 1, 65560, 1310722, 1, 131096, 1310722, 1, 196632, 1310722, 1, 262168, 1310722, 1, 327704, 1310722, 1, 393240, 1310722, 1, 458776, 1310722, 1, 524312, 1310722, 1, 589848, 1310722, 1, 655384, 1310722, 1, 720920, 1310722, 1, 786456, 1310722, 1, 851992, 1310722, 1, 917528, 1310722, 1, 983064, 1310722, 1, 1048600, 1310722, 1, 1114136, 1310722, 1, 1179672, 1310722, 1, 1245208, 1310722, 1, 1310744, 1310722, 1, 1376280, 1310722, 1, 1441816, 1310722, 1, -393191, 1310722, 1, -327655, 1310722, 1, -262119, 1310722, 1, -196583, 1310722, 1, -131047, 1310722, 1, -65511, 1310722, 1, 25, 1310722, 1, 65561, 1310722, 1, 131097, 1310722, 1, 196633, 1310722, 1, 262169, 1310722, 1, 327705, 1310722, 1, 393241, 1310722, 1, 458777, 1310722, 1, 524313, 1310722, 1, 589849, 1310722, 1, 655385, 1310722, 1, 720921, 1310722, 1, 786457, 1310722, 1, 851993, 1310722, 1, 917529, 1310722, 1, 983065, 1310722, 1, 1048601, 1310722, 1, 1114137, 1310722, 1, 1179673, 1310722, 1, 1245209, 1310722, 1, 1310745, 1310722, 1, 1376281, 1310722, 1, 1441817, 1310722, 1, -393190, 1310722, 1, -327654, 1310722, 1, -262118, 1310722, 1, -196582, 1310722, 1, -131046, 1310722, 1, -65510, 1310722, 1, 26, 1310722, 1, 65562, 1310722, 1, 131098, 1310722, 1, 196634, 1310722, 1, 262170, 1310722, 1, 327706, 1310722, 1, 393242, 1310722, 1, 458778, 1310722, 1, 524314, 1310722, 1, 589850, 1310722, 1, 655386, 1310722, 1, 720922, 1310722, 1, 786458, 1310722, 1, 851994, 1310722, 1, 917530, 1310722, 1, 983066, 1310722, 1, 1048602, 1310722, 1, 1114138, 1310722, 1, 1179674, 1310722, 1, 1245210, 1310722, 1, 1310746, 1310722, 1, 1376282, 1310722, 1, 1441818, 1310722, 1, -393189, 1310722, 1, -327653, 1310722, 1, -262117, 1310722, 1, -196581, 1310722, 1, -131045, 1310722, 1, -65509, 1310722, 1, 27, 1310722, 1, 65563, 1310722, 1, 131099, 1310722, 1, 196635, 1310722, 1, 262171, 1310722, 1, 327707, 1310722, 1, 393243, 1310722, 1, 458779, 1310722, 1, 524315, 1310722, 1, 589851, 1310722, 1, 655387, 1310722, 1, 720923, 1310722, 1, 786459, 1310722, 1, 851995, 1310722, 1, 917531, 1310722, 1, 983067, 1310722, 1, 1048603, 1310722, 1, 1114139, 1310722, 1, 1179675, 1310722, 1, 1245211, 1310722, 1, 1310747, 1310722, 1, 1376283, 1310722, 1, 1441819, 1310722, 1, -393188, 1310722, 1, -327652, 1310722, 1, -262116, 1310722, 1, -196580, 1310722, 1, -131044, 1310722, 1, -65508, 1310722, 1, 28, 1310722, 1, 65564, 1310722, 1, 131100, 1310722, 1, 196636, 1310722, 1, 262172, 1310722, 1, 327708, 1310722, 1, 393244, 1310722, 1, 458780, 1310722, 1, 524316, 1310722, 1, 589852, 1310722, 1, 655388, 1310722, 1, 720924, 1310722, 1, 786460, 1310722, 1, 851996, 1310722, 1, 917532, 1310722, 1, 983068, 1310722, 1, 1048604, 1310722, 1, 1114140, 1310722, 1, 1179676, 1310722, 1, 1245212, 1310722, 1, 1310748, 1310722, 1, 1376284, 1310722, 1, 1441820, 1310722, 1, -393187, 1310722, 1, -327651, 1310722, 1, -262115, 1310722, 1, -196579, 1310722, 1, -131043, 1310722, 1, -65507, 1310722, 1, 29, 1310722, 1, 65565, 1310722, 1, 131101, 1310722, 1, 196637, 1310722, 1, 262173, 1310722, 1, 327709, 1310722, 1, 393245, 1310722, 1, 458781, 1310722, 1, 524317, 1310722, 1, 589853, 1310722, 1, 655389, 1310722, 1, 720925, 1310722, 1, 786461, 1310722, 1, 851997, 1310722, 1, 917533, 1310722, 1, 983069, 1310722, 1, 1048605, 1310722, 1, 1114141, 1310722, 1, 1179677, 1310722, 1, 1245213, 1310722, 1, 1310749, 1310722, 1, 1376285, 1310722, 1, 1441821, 1310722, 1, -393186, 1310722, 1, -327650, 1310722, 1, -262114, 1310722, 1, -196578, 1310722, 1, -131042, 1310722, 1, -65506, 1310722, 1, 30, 1310722, 1, 65566, 1310722, 1, 131102, 1310722, 1, 196638, 1310722, 1, 262174, 1310722, 1, 327710, 1310722, 1, 393246, 1310722, 1, 458782, 1310722, 1, 524318, 1310722, 1, 589854, 1310722, 1, 655390, 1310722, 1, 720926, 1310722, 1, 786462, 1310722, 1, 851998, 1310722, 1, 917534, 1310722, 1, 983070, 1310722, 1, 1048606, 1310722, 1, 1114142, 1310722, 1, 1179678, 1310722, 1, 1245214, 1310722, 1, 1310750, 1310722, 1, 1376286, 1310722, 1, 1441822, 1310722, 1, -393185, 1310722, 1, -327649, 1310722, 1, -262113, 1310722, 1, -196577, 1310722, 1, -131041, 1310722, 1, -65505, 1310722, 1, 31, 1310722, 1, 65567, 1310722, 1, 131103, 1310722, 1, 196639, 1310722, 1, 262175, 1310722, 1, 327711, 1310722, 1, 393247, 1310722, 1, 458783, 1310722, 1, 524319, 1310722, 1, 589855, 1310722, 1, 655391, 1310722, 1, 720927, 1310722, 1, 786463, 1310722, 1, 851999, 1310722, 1, 917535, 1310722, 1, 983071, 1310722, 1, 1048607, 1310722, 1, 1114143, 1310722, 1, 1179679, 1310722, 1, 1245215, 1310722, 1, 1310751, 1310722, 1, 1376287, 1310722, 1, 1441823, 1310722, 1, -393184, 1310722, 1, -327648, 1310722, 1, -262112, 1310722, 1, -196576, 1310722, 1, -131040, 1310722, 1, -65504, 1310722, 1, 32, 1310722, 1, 65568, 1310722, 1, 131104, 1310722, 1, 196640, 1310722, 1, 262176, 1310722, 1, 327712, 1310722, 1, 393248, 1310722, 1, 458784, 1310722, 1, 524320, 1310722, 1, 589856, 1310722, 1, 655392, 1310722, 1, 720928, 1310722, 1, 786464, 1310722, 1, 852000, 1310722, 1, 917536, 1310722, 1, 983072, 1310722, 1, 1048608, 1310722, 1, 1114144, 1310722, 1, 1179680, 1310722, 1, 1245216, 1310722, 1, 1310752, 1310722, 1, 1376288, 1310722, 1, 1441824, 1310722, 1, -393183, 1310722, 1, -327647, 1310722, 1, -262111, 1310722, 1, -196575, 1310722, 1, -131039, 1310722, 1, -65503, 1310722, 1, 33, 1310722, 1, 65569, 1310722, 1, 131105, 1310722, 1, 196641, 1310722, 1, 262177, 1310722, 1, 327713, 1310722, 1, 393249, 1310722, 1, 458785, 1310722, 1, 524321, 1310722, 1, 589857, 1310722, 1, 655393, 1310722, 1, 720929, 1310722, 1, 786465, 1310722, 1, 852001, 1310722, 1, 917537, 1310722, 1, 983073, 1310722, 1, 1048609, 1310722, 1, 1114145, 1310722, 1, 1179681, 1310722, 1, 1245217, 1310722, 1, 1310753, 1310722, 1, 1376289, 1310722, 1, 1441825, 1310722, 1, -393182, 1310722, 1, -327646, 1310722, 1, -262110, 1310722, 1, -196574, 1310722, 1, -131038, 1310722, 1, -65502, 1310722, 1, 34, 1310722, 1, 65570, 1310722, 1, 131106, 1310722, 1, 196642, 1310722, 1, 262178, 1310722, 1, 327714, 1310722, 1, 393250, 1310722, 1, 458786, 1310722, 1, 524322, 1310722, 1, 589858, 1310722, 1, 655394, 1310722, 1, 720930, 1310722, 1, 786466, 1310722, 1, 852002, 1310722, 1, 917538, 1310722, 1, 983074, 1310722, 1, 1048610, 1310722, 1, 1114146, 1310722, 1, 1179682, 1310722, 1, 1245218, 1310722, 1, 1310754, 1310722, 1, 1376290, 1310722, 1, 1441826, 1310722, 1, -393181, 1310722, 1, -327645, 1310722, 1, -262109, 1310722, 1, -196573, 1310722, 1, -131037, 1310722, 1, -65501, 1310722, 1, 35, 1310722, 1, 65571, 1310722, 1, 131107, 1310722, 1, 196643, 1310722, 1, 262179, 1310722, 1, 327715, 1310722, 1, 393251, 1310722, 1, 458787, 1310722, 1, 524323, 1310722, 1, 589859, 1310722, 1, 655395, 1310722, 1, 720931, 1310722, 1, 786467, 1310722, 1, 852003, 1310722, 1, 917539, 1310722, 1, 983075, 1310722, 1, 1048611, 1310722, 1, 1114147, 1310722, 1, 1179683, 1310722, 1, 1245219, 1310722, 1, 1310755, 1310722, 1, 1376291, 1310722, 1, 1441827, 1310722, 1, -393180, 1310722, 1, -327644, 1310722, 1, -262108, 1310722, 1, -196572, 1310722, 1, -131036, 1310722, 1, -65500, 1310722, 1, 36, 1310722, 1, 65572, 1310722, 1, 131108, 1310722, 1, 196644, 1310722, 1, 262180, 1310722, 1, 327716, 1310722, 1, 393252, 1310722, 1, 458788, 1310722, 1, 524324, 1310722, 1, 589860, 1310722, 1, 655396, 1310722, 1, 720932, 1310722, 1, 786468, 1310722, 1, 852004, 1310722, 1, 917540, 1310722, 1, 983076, 1310722, 1, 1048612, 1310722, 1, 1114148, 1310722, 1, 1179684, 1310722, 1, 1245220, 1310722, 1, 1310756, 1310722, 1, 1376292, 1310722, 1, 1441828, 1310722, 1, -393179, 1310722, 1, -327643, 1310722, 1, -262107, 1310722, 1, -196571, 1310722, 1, -131035, 1310722, 1, -65499, 1310722, 1, 37, 1310722, 1, 65573, 1310722, 1, 131109, 1310722, 1, 196645, 1310722, 1, 262181, 1310722, 1, 327717, 1310722, 1, 393253, 1310722, 1, 458789, 1310722, 1, 524325, 1310722, 1, 589861, 1310722, 1, 655397, 1310722, 1, 720933, 1310722, 1, 786469, 1310722, 1, 852005, 1310722, 1, 917541, 1310722, 1, 983077, 1310722, 1, 1048613, 1310722, 1, 1114149, 1310722, 1, 1179685, 1310722, 1, 1245221, 1310722, 1, 1310757, 1310722, 1, 1376293, 1310722, 1, 1441829, 1310722, 1, -393178, 1310722, 1, -327642, 1310722, 1, -262106, 1310722, 1, -196570, 1310722, 1, -131034, 1310722, 1, -65498, 1310722, 1, 38, 1310722, 1, 65574, 1310722, 1, 131110, 1310722, 1, 196646, 1310722, 1, 262182, 1310722, 1, 327718, 1310722, 1, 393254, 1310722, 1, 458790, 1310722, 1, 524326, 1310722, 1, 589862, 1310722, 1, 655398, 1310722, 1, 720934, 1310722, 1, 786470, 1310722, 1, 852006, 1310722, 1, 917542, 1310722, 1, 983078, 1310722, 1, 1048614, 1310722, 1, 1114150, 1310722, 1, 1179686, 1310722, 1, 1245222, 1310722, 1, 1310758, 1310722, 1, 1376294, 1310722, 1, 1441830, 1310722, 1, -524312, 1310722, 1, -458776, 1310722, 1, -393240, 1310722, 1, -327704, 1310722, 1, -262168, 1310722, 1, -196632, 1310722, 1, -131096, 1310722, 1, -65560, 1310722, 1, -24, 1310722, 1, 65512, 1310722, 1, 131048, 1310722, 1, 196584, 1310722, 1, 262120, 1310722, 1, 327656, 1310722, 1, 393192, 1310722, 1, 458728, 1310722, 1, 524264, 1310722, 1, 589800, 1310722, 1, 655336, 1310722, 1, 720872, 1310722, 1, 786408, 1310722, 1, 851944, 1310722, 1, 917480, 1310722, 1, 983016, 1310722, 1, 1048552, 1310722, 1, 1114088, 1310722, 1, 1179624, 1310722, 1, 1245160, 1310722, 1, 1310696, 1310722, 1, 1376232, 1310722, 1, 1441768, 1310722, 1, 1507304, 1310722, 1, 1572840, 1310722, 1, 1638376, 1310722, 1, 1703912, 1310722, 1, -524311, 1310722, 1, -458775, 1310722, 1, -393239, 1310722, 1, -327703, 1310722, 1, -262167, 1310722, 1, -196631, 1310722, 1, -131095, 1310722, 1, -65559, 1310722, 1, -23, 1310722, 1, 65513, 1310722, 1, 131049, 1310722, 1, 196585, 1310722, 1, 262121, 1310722, 1, 327657, 1310722, 1, 393193, 1310722, 1, 458729, 1310722, 1, 524265, 1310722, 1, 589801, 1310722, 1, 655337, 1310722, 1, 720873, 1310722, 1, 786409, 1310722, 1, 851945, 1310722, 1, 917481, 1310722, 1, 983017, 1310722, 1, 1048553, 1310722, 1, 1114089, 1310722, 1, 1179625, 1310722, 1, 1245161, 1310722, 1, 1310697, 1310722, 1, 1376233, 1310722, 1, 1441769, 1310722, 1, 1507305, 1310722, 1, 1572841, 1310722, 1, 1638377, 1310722, 1, 1703913, 1310722, 1, -524310, 1310722, 1, -458774, 1310722, 1, -393238, 1310722, 1, -327702, 1310722, 1, -262166, 1310722, 1, -196630, 1310722, 1, -131094, 1310722, 1, -65558, 1310722, 1, -22, 1310722, 1, 65514, 1310722, 1, 131050, 1310722, 1, 196586, 1310722, 1, 262122, 1310722, 1, 327658, 1310722, 1, 393194, 1310722, 1, 458730, 1310722, 1, 524266, 1310722, 1, 589802, 1310722, 1, 655338, 1310722, 1, 720874, 1310722, 1, 786410, 1310722, 1, 851946, 1310722, 1, 917482, 1310722, 1, 983018, 1310722, 1, 1048554, 1310722, 1, 1114090, 1310722, 1, 1179626, 1310722, 1, 1245162, 1310722, 1, 1310698, 1310722, 1, 1376234, 1310722, 1, 1441770, 1310722, 1, 1507306, 1310722, 1, 1572842, 1310722, 1, 1638378, 1310722, 1, 1703914, 1310722, 1, -524309, 1310722, 1, -458773, 1310722, 1, -393237, 1310722, 1, -327701, 1310722, 1, -262165, 1310722, 1, -196629, 1310722, 1, -131093, 1310722, 1, -65557, 1310722, 1, -21, 1310722, 1, 65515, 1310722, 1, 131051, 1310722, 1, 196587, 1310722, 1, 262123, 1310722, 1, 327659, 1310722, 1, 393195, 1310722, 1, 458731, 1310722, 1, 524267, 1310722, 1, 589803, 1310722, 1, 655339, 1310722, 1, 720875, 1310722, 1, 786411, 1310722, 1, 851947, 1310722, 1, 917483, 1310722, 1, 983019, 1310722, 1, 1048555, 1310722, 1, 1114091, 1310722, 1, 1179627, 1310722, 1, 1245163, 1310722, 1, 1310699, 1310722, 1, 1376235, 1310722, 1, 1441771, 1310722, 1, 1507307, 1310722, 1, 1572843, 1310722, 1, 1638379, 1310722, 1, 1703915, 1310722, 1, -524308, 1310722, 1, -458772, 1310722, 1, -393236, 1310722, 1, -327700, 1310722, 1, -262164, 1310722, 1, -196628, 1310722, 1, -131092, 1310722, 1, -65556, 1310722, 1, -20, 1310722, 1, 65516, 1310722, 1, 131052, 1310722, 1, 196588, 1310722, 1, 262124, 1310722, 1, 327660, 1310722, 1, 393196, 1310722, 1, 458732, 1310722, 1, 524268, 1310722, 1, 589804, 1310722, 1, 655340, 1310722, 1, 720876, 1310722, 1, 786412, 1310722, 1, 851948, 1310722, 1, 917484, 1310722, 1, 983020, 1310722, 1, 1048556, 1310722, 1, 1114092, 1310722, 1, 1179628, 1310722, 1, 1245164, 1310722, 1, 1310700, 1310722, 1, 1376236, 1310722, 1, 1441772, 1310722, 1, 1507308, 1310722, 1, 1572844, 1310722, 1, 1638380, 1310722, 1, 1703916, 1310722, 1, -524307, 1310722, 1, -458771, 1310722, 1, -393235, 1310722, 1, 1572845, 1310722, 1, 1638381, 1310722, 1, 1703917, 1310722, 1, -524306, 1310722, 1, -458770, 1310722, 1, -393234, 1310722, 1, 1572846, 1310722, 1, 1638382, 1310722, 1, 1703918, 1310722, 1, -524305, 1310722, 1, -458769, 1310722, 1, -393233, 1310722, 1, 1572847, 1310722, 1, 1638383, 1310722, 1, 1703919, 1310722, 1, -524304, 1310722, 1, -458768, 1310722, 1, -393232, 1310722, 1, 1572848, 1310722, 1, 1638384, 1310722, 1, 1703920, 1310722, 1, -524303, 1310722, 1, -458767, 1310722, 1, -393231, 1310722, 1, 1572849, 1310722, 1, 1638385, 1310722, 1, 1703921, 1310722, 1, -524302, 1310722, 1, -458766, 1310722, 1, -393230, 1310722, 1, 1572850, 1310722, 1, 1638386, 1310722, 1, 1703922, 1310722, 1, -524301, 1310722, 1, -458765, 1310722, 1, -393229, 1310722, 1, 1572851, 1310722, 1, 1638387, 1310722, 1, 1703923, 1310722, 1, -524300, 1310722, 1, -458764, 1310722, 1, -393228, 1310722, 1, 1572852, 1310722, 1, 1638388, 1310722, 1, 1703924, 1310722, 1, -524299, 1310722, 1, -458763, 1310722, 1, -393227, 1310722, 1, 1572853, 1310722, 1, 1638389, 1310722, 1, 1703925, 1310722, 1, -524298, 1310722, 1, -458762, 1310722, 1, -393226, 1310722, 1, 1572854, 1310722, 1, 1638390, 1310722, 1, 1703926, 1310722, 1, -524297, 1310722, 1, -458761, 1310722, 1, -393225, 1310722, 1, 1572855, 1310722, 1, 1638391, 1310722, 1, 1703927, 1310722, 1, -524296, 1310722, 1, -458760, 1310722, 1, -393224, 1310722, 1, 1572856, 1310722, 1, 1638392, 1310722, 1, 1703928, 1310722, 1, -524295, 1310722, 1, -458759, 1310722, 1, -393223, 1310722, 1, 1572857, 1310722, 1, 1638393, 1310722, 1, 1703929, 1310722, 1, -524294, 1310722, 1, -458758, 1310722, 1, -393222, 1310722, 1, 1572858, 1310722, 1, 1638394, 1310722, 1, 1703930, 1310722, 1, -524293, 1310722, 1, -458757, 1310722, 1, -393221, 1310722, 1, 1572859, 1310722, 1, 1638395, 1310722, 1, 1703931, 1310722, 1, -524292, 1310722, 1, -458756, 1310722, 1, -393220, 1310722, 1, 1572860, 1310722, 1, 1638396, 1310722, 1, 1703932, 1310722, 1, -524291, 1310722, 1, -458755, 1310722, 1, -393219, 1310722, 1, 1572861, 1310722, 1, 1638397, 1310722, 1, 1703933, 1310722, 1, -524290, 1310722, 1, -458754, 1310722, 1, -393218, 1310722, 1, 1572862, 1310722, 1, 1638398, 1310722, 1, 1703934, 1310722, 1, -524289, 1310722, 1, -458753, 1310722, 1, -393217, 1310722, 1, 1572863, 1310722, 1, 1638399, 1310722, 1, 1703935, 1310722, 1, -589824, 1310722, 1, -524288, 1310722, 1, -458752, 1310722, 1, 1507328, 1310722, 1, 1572864, 1310722, 1, 1638400, 1310722, 1, -589823, 1310722, 1, -524287, 1310722, 1, -458751, 1310722, 1, 1507329, 1310722, 1, 1572865, 1310722, 1, 1638401, 1310722, 1, -589822, 1310722, 1, -524286, 1310722, 1, -458750, 1310722, 1, 1507330, 1310722, 1, 1572866, 1310722, 1, 1638402, 1310722, 1, -589821, 1310722, 1, -524285, 1310722, 1, -458749, 1310722, 1, 1507331, 1310722, 1, 1572867, 1310722, 1, 1638403, 1310722, 1, -589820, 1310722, 1, -524284, 1310722, 1, -458748, 1310722, 1, 1507332, 1310722, 1, 1572868, 1310722, 1, 1638404, 1310722, 1, -589819, 1310722, 1, -524283, 1310722, 1, -458747, 1310722, 1, 1507333, 1310722, 1, 1572869, 1310722, 1, 1638405, 1310722, 1, -589818, 1310722, 1, -524282, 1310722, 1, -458746, 1310722, 1, 1507334, 1310722, 1, 1572870, 1310722, 1, 1638406, 1310722, 1, -589817, 1310722, 1, -524281, 1310722, 1, -458745, 1310722, 1, 1507335, 1310722, 1, 1572871, 1310722, 1, 1638407, 1310722, 1, -589816, 1310722, 1, -524280, 1310722, 1, -458744, 1310722, 1, 1507336, 1310722, 1, 1572872, 1310722, 1, 1638408, 1310722, 1, -589815, 1310722, 1, -524279, 1310722, 1, -458743, 1310722, 1, 1507337, 1310722, 1, 1572873, 1310722, 1, 1638409, 1310722, 1, -589814, 1310722, 1, -524278, 1310722, 1, -458742, 1310722, 1, 1507338, 1310722, 1, 1572874, 1310722, 1, 1638410, 1310722, 1, -589813, 1310722, 1, -524277, 1310722, 1, -458741, 1310722, 1, 1507339, 1310722, 1, 1572875, 1310722, 1, 1638411, 1310722, 1, -589812, 1310722, 1, -524276, 1310722, 1, -458740, 1310722, 1, 1507340, 1310722, 1, 1572876, 1310722, 1, 1638412, 1310722, 1, -589811, 1310722, 1, -524275, 1310722, 1, -458739, 1310722, 1, 1507341, 1310722, 1, 1572877, 1310722, 1, 1638413, 1310722, 1, -589810, 1310722, 1, -524274, 1310722, 1, -458738, 1310722, 1, 1507342, 1310722, 1, 1572878, 1310722, 1, 1638414, 1310722, 1, -589809, 1310722, 1, -524273, 1310722, 1, -458737, 1310722, 1, 1507343, 1310722, 1, 1572879, 1310722, 1, 1638415, 1310722, 1, -589808, 1310722, 1, -524272, 1310722, 1, -458736, 1310722, 1, 1507344, 1310722, 1, 1572880, 1310722, 1, 1638416, 1310722, 1, -589807, 1310722, 1, -524271, 1310722, 1, -458735, 1310722, 1, 1507345, 1310722, 1, 1572881, 1310722, 1, 1638417, 1310722, 1, -589806, 1310722, 1, -524270, 1310722, 1, -458734, 1310722, 1, 1507346, 1310722, 1, 1572882, 1310722, 1, 1638418, 1310722, 1, -589805, 1310722, 1, -524269, 1310722, 1, -458733, 1310722, 1, 1507347, 1310722, 1, 1572883, 1310722, 1, 1638419, 1310722, 1, -589804, 1310722, 1, -524268, 1310722, 1, -458732, 1310722, 1, 1507348, 1310722, 1, 1572884, 1310722, 1, 1638420, 1310722, 1, -589803, 1310722, 1, -524267, 1310722, 1, -458731, 1310722, 1, 1507349, 1310722, 1, 1572885, 1310722, 1, 1638421, 1310722, 1, -589802, 1310722, 1, -524266, 1310722, 1, -458730, 1310722, 1, 1507350, 1310722, 1, 1572886, 1310722, 1, 1638422, 1310722, 1, -589801, 1310722, 1, -524265, 1310722, 1, -458729, 1310722, 1, 1507351, 1310722, 1, 1572887, 1310722, 1, 1638423, 1310722, 1, -589800, 1310722, 1, -524264, 1310722, 1, -458728, 1310722, 1, 1507352, 1310722, 1, 1572888, 1310722, 1, 1638424, 1310722, 1, -589799, 1310722, 1, -524263, 1310722, 1, -458727, 1310722, 1, 1507353, 1310722, 1, 1572889, 1310722, 1, 1638425, 1310722, 1, -589798, 1310722, 1, -524262, 1310722, 1, -458726, 1310722, 1, 1507354, 1310722, 1, 1572890, 1310722, 1, 1638426, 1310722, 1, -589797, 1310722, 1, -524261, 1310722, 1, -458725, 1310722, 1, 1507355, 1310722, 1, 1572891, 1310722, 1, 1638427, 1310722, 1, -589796, 1310722, 1, -524260, 1310722, 1, -458724, 1310722, 1, 1507356, 1310722, 1, 1572892, 1310722, 1, 1638428, 1310722, 1, -589795, 1310722, 1, -524259, 1310722, 1, -458723, 1310722, 1, 1507357, 1310722, 1, 1572893, 1310722, 1, 1638429, 1310722, 1, -589794, 1310722, 1, -524258, 1310722, 1, -458722, 1310722, 1, 1507358, 1310722, 1, 1572894, 1310722, 1, 1638430, 1310722, 1, -589793, 1310722, 1, -524257, 1310722, 1, -458721, 1310722, 1, 1507359, 1310722, 1, 1572895, 1310722, 1, 1638431, 1310722, 1, -589792, 1310722, 1, -524256, 1310722, 1, -458720, 1310722, 1, 1507360, 1310722, 1, 1572896, 1310722, 1, 1638432, 1310722, 1, -589791, 1310722, 1, -524255, 1310722, 1, -458719, 1310722, 1, 1507361, 1310722, 1, 1572897, 1310722, 1, 1638433, 1310722, 1, -589790, 1310722, 1, -524254, 1310722, 1, -458718, 1310722, 1, 1507362, 1310722, 1, 1572898, 1310722, 1, 1638434, 1310722, 1, -589789, 1310722, 1, -524253, 1310722, 1, -458717, 1310722, 1, 1507363, 1310722, 1, 1572899, 1310722, 1, 1638435, 1310722, 1, -589788, 1310722, 1, -524252, 1310722, 1, -458716, 1310722, 1, 1507364, 1310722, 1, 1572900, 1310722, 1, 1638436, 1310722, 1, -589787, 1310722, 1, -524251, 1310722, 1, -458715, 1310722, 1, 1507365, 1310722, 1, 1572901, 1310722, 1, 1638437, 1310722, 1, -589786, 1310722, 1, -524250, 1310722, 1, -458714, 1310722, 1, 1507366, 1310722, 1, 1572902, 1310722, 1, 1638438, 1310722, 1, -589785, 1310722, 1, -524249, 1310722, 1, -458713, 1310722, 1, -393177, 1310722, 1, -327641, 1310722, 1, -262105, 1310722, 1, -196569, 1310722, 1, -131033, 1310722, 1, -65497, 1310722, 1, 39, 1310722, 1, 65575, 1310722, 1, 131111, 1310722, 1, 196647, 1310722, 1, 262183, 1310722, 1, 327719, 1310722, 1, 393255, 1310722, 1, 458791, 1310722, 1, 524327, 1310722, 1, 589863, 1310722, 1, 655399, 1310722, 1, 720935, 1310722, 1, 786471, 1310722, 1, 852007, 1310722, 1, 917543, 1310722, 1, 983079, 1310722, 1, 1048615, 1310722, 1, 1114151, 1310722, 1, 1179687, 1310722, 1, 1245223, 1310722, 1, 1310759, 1310722, 1, 1376295, 1310722, 1, 1441831, 1310722, 1, 1507367, 1310722, 1, 1572903, 1310722, 1, 1638439, 1310722, 1, -589784, 1310722, 1, -524248, 1310722, 1, -458712, 1310722, 1, -393176, 1310722, 1, -327640, 1310722, 1, -262104, 1310722, 1, -196568, 1310722, 1, -131032, 1310722, 1, -65496, 1310722, 1, 40, 1310722, 1, 65576, 1310722, 1, 131112, 1310722, 1, 196648, 1310722, 1, 262184, 1310722, 1, 327720, 1310722, 1, 393256, 1310722, 1, 458792, 1310722, 1, 524328, 1310722, 1, 589864, 1310722, 1, 655400, 1310722, 1, 720936, 1310722, 1, 786472, 1310722, 1, 852008, 1310722, 1, 917544, 1310722, 1, 983080, 1310722, 1, 1048616, 1310722, 1, 1114152, 1310722, 1, 1179688, 1310722, 1, 1245224, 1310722, 1, 1310760, 1310722, 1, 1376296, 1310722, 1, 1441832, 1310722, 1, 1507368, 1310722, 1, 1572904, 1310722, 1, 1638440, 1310722, 1, -589783, 1310722, 1, -524247, 1310722, 1, -458711, 1310722, 1, -393175, 1310722, 1, -327639, 1310722, 1, -262103, 1310722, 1, -196567, 1310722, 1, -131031, 1310722, 1, -65495, 1310722, 1, 41, 1310722, 1, 65577, 1310722, 1, 131113, 1310722, 1, 196649, 1310722, 1, 262185, 1310722, 1, 327721, 1310722, 1, 393257, 1310722, 1, 458793, 1310722, 1, 524329, 1310722, 1, 589865, 1310722, 1, 655401, 1310722, 1, 720937, 1310722, 1, 786473, 1310722, 1, 852009, 1310722, 1, 917545, 1310722, 1, 983081, 1310722, 1, 1048617, 1310722, 1, 1114153, 1310722, 1, 1179689, 1310722, 1, 1245225, 1310722, 1, 1310761, 1310722, 1, 1376297, 1310722, 1, 1441833, 1310722, 1, 1507369, 1310722, 1, 1572905, 1310722, 1, 1638441, 1310722, 1, -589782, 1310722, 1, -524246, 1310722, 1, -458710, 1310722, 1, -393174, 1310722, 1, -327638, 1310722, 1, -262102, 1310722, 1, -196566, 1310722, 1, -131030, 1310722, 1, -65494, 1310722, 1, 42, 1310722, 1, 65578, 1310722, 1, 131114, 1310722, 1, 196650, 1310722, 1, 262186, 1310722, 1, 327722, 1310722, 1, 393258, 1310722, 1, 458794, 1310722, 1, 524330, 1310722, 1, 589866, 1310722, 1, 655402, 1310722, 1, 720938, 1310722, 1, 786474, 1310722, 1, 852010, 1310722, 1, 917546, 1310722, 1, 983082, 1310722, 1, 1048618, 1310722, 1, 1114154, 1310722, 1, 1179690, 1310722, 1, 1245226, 1310722, 1, 1310762, 1310722, 1, 1376298, 1310722, 1, 1441834, 1310722, 1, 1507370, 1310722, 1, 1572906, 1310722, 1, 1638442, 1310722, 1, -589781, 1310722, 1, -524245, 1310722, 1, -458709, 1310722, 1, -393173, 1310722, 1, -327637, 1310722, 1, -262101, 1310722, 1, -196565, 1310722, 1, -131029, 1310722, 1, -65493, 1310722, 1, 43, 1310722, 1, 65579, 1310722, 1, 131115, 1310722, 1, 196651, 1310722, 1, 262187, 1310722, 1, 327723, 1310722, 1, 393259, 1310722, 1, 458795, 1310722, 1, 524331, 1310722, 1, 589867, 1310722, 1, 655403, 1310722, 1, 720939, 1310722, 1, 786475, 1310722, 1, 852011, 1310722, 1, 917547, 1310722, 1, 983083, 1310722, 1, 1048619, 1310722, 1, 1114155, 1310722, 1, 1179691, 1310722, 1, 1245227, 1310722, 1, 1310763, 1310722, 1, 1376299, 1310722, 1, 1441835, 1310722, 1, 1507371, 1310722, 1, 1572907, 1310722, 1, 1638443, 1310722, 1, -786457, 1310722, 1, -720921, 1310722, 1, -655385, 1310722, 1, -589849, 1310722, 1, -524313, 1310722, 1, -458777, 1310722, 1, -393241, 1310722, 1, -327705, 1310722, 1, -262169, 1310722, 1, -196633, 1310722, 1, -131097, 1310722, 1, -65561, 1310722, 1, -25, 1310722, 1, 65511, 1310722, 1, 131047, 1310722, 1, 196583, 1310722, 1, 262119, 1310722, 1, 327655, 1310722, 1, 393191, 1310722, 1, 458727, 1310722, 1, 524263, 1310722, 1, 589799, 1310722, 1, 655335, 1310722, 1, 720871, 1310722, 1, 786407, 1310722, 1, 851943, 1310722, 1, 917479, 1310722, 1, 983015, 1310722, 1, 1048551, 1310722, 1, 1114087, 1310722, 1, 1179623, 1310722, 1, 1245159, 1310722, 1, 1310695, 1310722, 1, 1376231, 1310722, 1, 1441767, 1310722, 1, 1507303, 1310722, 1, 1572839, 1310722, 1, 1638375, 1310722, 1, 1703911, 1310722, 1, 1769447, 1310722, 1, 1834983, 1310722, 1, 1900519, 1310722, 1, 1966055, 1310722, 1, 2031591, 1310722, 1, 2097127, 1310722, 1, -786456, 1310722, 1, -720920, 1310722, 1, -655384, 1310722, 1, -589848, 1310722, 1, 1769448, 1310722, 1, 1834984, 1310722, 1, 1900520, 1310722, 1, 1966056, 1310722, 1, 2031592, 1310722, 1, 2097128, 1310722, 1, -786455, 1310722, 1, -720919, 1310722, 1, -655383, 1310722, 1, -589847, 1310722, 1, 1769449, 1310722, 1, 1834985, 1310722, 1, 1900521, 1310722, 1, 1966057, 1310722, 1, 2031593, 1310722, 1, 2097129, 1310722, 1, -786454, 1310722, 1, -720918, 1310722, 1, -655382, 1310722, 1, -589846, 1310722, 1, 1769450, 1310722, 1, 1834986, 1310722, 1, 1900522, 1310722, 1, 1966058, 1310722, 1, 2031594, 1310722, 1, 2097130, 1310722, 1, -786453, 1310722, 1, -720917, 1310722, 1, -655381, 1310722, 1, -589845, 1310722, 1, 1769451, 1310722, 1, 1834987, 1310722, 1, 1900523, 1310722, 1, 1966059, 1310722, 1, 2031595, 1310722, 1, 2097131, 1310722, 1, -786452, 1310722, 1, -720916, 1310722, 1, -655380, 1310722, 1, -589844, 1310722, 1, 1769452, 1310722, 1, 1834988, 1310722, 1, 1900524, 1310722, 1, 1966060, 1310722, 1, 2031596, 1310722, 1, 2097132, 1310722, 1, -786451, 1310722, 1, -720915, 1310722, 1, -655379, 1310722, 1, -589843, 1310722, 1, 1769453, 1310722, 1, 1834989, 1310722, 1, 1900525, 1310722, 1, 1966061, 1310722, 1, 2031597, 1310722, 1, 2097133, 1310722, 1, -786450, 1310722, 1, -720914, 1310722, 1, -655378, 1310722, 1, -589842, 1310722, 1, 1769454, 1310722, 1, 1834990, 1310722, 1, 1900526, 1310722, 1, 1966062, 1310722, 1, 2031598, 1310722, 1, 2097134, 1310722, 1, -786449, 1310722, 1, -720913, 1310722, 1, -655377, 1310722, 1, -589841, 1310722, 1, 1769455, 1310722, 1, 1834991, 1310722, 1, 1900527, 1310722, 1, 1966063, 1310722, 1, 2031599, 1310722, 1, 2097135, 1310722, 1, -786448, 1310722, 1, -720912, 1310722, 1, -655376, 1310722, 1, -589840, 1310722, 1, 1769456, 1310722, 1, 1834992, 1310722, 1, 1900528, 1310722, 1, 1966064, 1310722, 1, 2031600, 1310722, 1, 2097136, 1310722, 1, -786447, 1310722, 1, -720911, 1310722, 1, -655375, 1310722, 1, -589839, 1310722, 1, 1769457, 1310722, 1, 1834993, 1310722, 1, 1900529, 1310722, 1, 1966065, 1310722, 1, 2031601, 1310722, 1, 2097137, 1310722, 1, -786446, 1310722, 1, -720910, 1310722, 1, -655374, 1310722, 1, -589838, 1310722, 1, 1769458, 1310722, 1, 1834994, 1310722, 1, 1900530, 1310722, 1, 1966066, 1310722, 1, 2031602, 1310722, 1, 2097138, 1310722, 1, -786445, 1310722, 1, -720909, 1310722, 1, -655373, 1310722, 1, -589837, 1310722, 1, 1769459, 1310722, 1, 1834995, 1310722, 1, 1900531, 1310722, 1, 1966067, 1310722, 1, 2031603, 1310722, 1, 2097139, 1310722, 1, -786444, 1310722, 1, -720908, 1310722, 1, -655372, 1310722, 1, -589836, 1310722, 1, 1769460, 1310722, 1, 1834996, 1310722, 1, 1900532, 1310722, 1, 1966068, 1310722, 1, 2031604, 1310722, 1, 2097140, 1310722, 1, -786443, 1310722, 1, -720907, 1310722, 1, -655371, 1310722, 1, -589835, 1310722, 1, 1769461, 1310722, 1, 1834997, 1310722, 1, 1900533, 1310722, 1, 1966069, 1310722, 1, 2031605, 1310722, 1, 2097141, 1310722, 1, -786442, 1310722, 1, -720906, 1310722, 1, -655370, 1310722, 1, -589834, 1310722, 1, 1769462, 1310722, 1, 1834998, 1310722, 1, 1900534, 1310722, 1, 1966070, 1310722, 1, 2031606, 1310722, 1, 2097142, 1310722, 1, -786441, 1310722, 1, -720905, 1310722, 1, -655369, 1310722, 1, -589833, 1310722, 1, 1769463, 1310722, 1, 1834999, 1310722, 1, 1900535, 1310722, 1, 1966071, 1310722, 1, 2031607, 1310722, 1, 2097143, 1310722, 1, -786440, 1310722, 1, -720904, 1310722, 1, -655368, 1310722, 1, -589832, 1310722, 1, 1769464, 1310722, 1, 1835000, 1310722, 1, 1900536, 1310722, 1, 1966072, 1310722, 1, 2031608, 1310722, 1, 2097144, 1310722, 1, -786439, 1310722, 1, -720903, 1310722, 1, -655367, 1310722, 1, -589831, 1310722, 1, 1769465, 1310722, 1, 1835001, 1310722, 1, 1900537, 1310722, 1, 1966073, 1310722, 1, 2031609, 1310722, 1, 2097145, 1310722, 1, -786438, 1310722, 1, -720902, 1310722, 1, -655366, 1310722, 1, -589830, 1310722, 1, 1769466, 1310722, 1, 1835002, 1310722, 1, 1900538, 1310722, 1, 1966074, 1310722, 1, 2031610, 1310722, 1, 2097146, 1310722, 1, -786437, 1310722, 1, -720901, 1310722, 1, -655365, 1310722, 1, -589829, 1310722, 1, 1769467, 1310722, 1, 1835003, 1310722, 1, 1900539, 1310722, 1, 1966075, 1310722, 1, 2031611, 1310722, 1, 2097147, 1310722, 1, -786436, 1310722, 1, -720900, 1310722, 1, -655364, 1310722, 1, -589828, 1310722, 1, 1769468, 1310722, 1, 1835004, 1310722, 1, 1900540, 1310722, 1, 1966076, 1310722, 1, 2031612, 1310722, 1, 2097148, 1310722, 1, -786435, 1310722, 1, -720899, 1310722, 1, -655363, 1310722, 1, -589827, 1310722, 1, 1769469, 1310722, 1, 1835005, 1310722, 1, 1900541, 1310722, 1, 1966077, 1310722, 1, 2031613, 1310722, 1, 2097149, 1310722, 1, -786434, 1310722, 1, -720898, 1310722, 1, -655362, 1310722, 1, -589826, 1310722, 1, 1769470, 1310722, 1, 1835006, 1310722, 1, 1900542, 1310722, 1, 1966078, 1310722, 1, 2031614, 1310722, 1, 2097150, 1310722, 1, -786433, 1310722, 1, -720897, 1310722, 1, -655361, 1310722, 1, -589825, 1310722, 1, 1769471, 1310722, 1, 1835007, 1310722, 1, 1900543, 1310722, 1, 1966079, 1310722, 1, 2031615, 1310722, 1, 2097151, 1310722, 1, -851968, 1310722, 1, -786432, 1310722, 1, -720896, 1310722, 1, -655360, 1310722, 1, 1703936, 1310722, 1, 1769472, 1310722, 1, 1835008, 1310722, 1, 1900544, 1310722, 1, 1966080, 1310722, 1, 2031616, 1310722, 1, -851967, 1310722, 1, -786431, 1310722, 1, -720895, 1310722, 1, -655359, 1310722, 1, 1703937, 1310722, 1, 1769473, 1310722, 1, 1835009, 1310722, 1, 1900545, 1310722, 1, 1966081, 1310722, 1, 2031617, 1310722, 1, -851966, 1310722, 1, -786430, 1310722, 1, -720894, 1310722, 1, -655358, 1310722, 1, 1703938, 1310722, 1, 1769474, 1310722, 1, 1835010, 1310722, 1, 1900546, 1310722, 1, 1966082, 1310722, 1, 2031618, 1310722, 1, -851965, 1310722, 1, -786429, 1310722, 1, -720893, 1310722, 1, -655357, 1310722, 1, 1703939, 1310722, 1, 1769475, 1310722, 1, 1835011, 1310722, 1, 1900547, 1310722, 1, 1966083, 1310722, 1, 2031619, 1310722, 1, -851964, 1310722, 1, -786428, 1310722, 1, -720892, 1310722, 1, -655356, 1310722, 1, 1703940, 1310722, 1, 1769476, 1310722, 1, 1835012, 1310722, 1, 1900548, 1310722, 1, 1966084, 1310722, 1, 2031620, 1310722, 1, -851963, 1310722, 1, -786427, 1310722, 1, -720891, 1310722, 1, -655355, 1310722, 1, 1703941, 1310722, 1, 1769477, 1310722, 1, 1835013, 1310722, 1, 1900549, 1310722, 1, 1966085, 1310722, 1, 2031621, 1310722, 1, -851962, 1310722, 1, -786426, 1310722, 1, -720890, 1310722, 1, -655354, 1310722, 1, 1703942, 1310722, 1, 1769478, 1310722, 1, 1835014, 1310722, 1, 1900550, 1310722, 1, 1966086, 1310722, 1, 2031622, 1310722, 1, -851961, 1310722, 1, -786425, 1310722, 1, -720889, 1310722, 1, -655353, 1310722, 1, 1703943, 1310722, 1, 1769479, 1310722, 1, 1835015, 1310722, 1, 1900551, 1310722, 1, 1966087, 1310722, 1, 2031623, 1310722, 1, -851960, 1310722, 1, -786424, 1310722, 1, -720888, 1310722, 1, -655352, 1310722, 1, 1703944, 1310722, 1, 1769480, 1310722, 1, 1835016, 1310722, 1, 1900552, 1310722, 1, 1966088, 1310722, 1, 2031624, 1310722, 1, -851959, 1310722, 1, -786423, 1310722, 1, -720887, 1310722, 1, -655351, 1310722, 1, 1703945, 1310722, 1, 1769481, 1310722, 1, 1835017, 1310722, 1, 1900553, 1310722, 1, 1966089, 1310722, 1, 2031625, 1310722, 1, -851958, 1310722, 1, -786422, 1310722, 1, -720886, 1310722, 1, -655350, 1310722, 1, 1703946, 1310722, 1, 1769482, 1310722, 1, 1835018, 1310722, 1, 1900554, 1310722, 1, 1966090, 1310722, 1, 2031626, 1310722, 1, -851957, 1310722, 1, -786421, 1310722, 1, -720885, 1310722, 1, -655349, 1310722, 1, 1703947, 1310722, 1, 1769483, 1310722, 1, 1835019, 1310722, 1, 1900555, 1310722, 1, 1966091, 1310722, 1, 2031627, 1310722, 1, -851956, 1310722, 1, -786420, 1310722, 1, -720884, 1310722, 1, -655348, 1310722, 1, 1703948, 1310722, 1, 1769484, 1310722, 1, 1835020, 1310722, 1, 1900556, 1310722, 1, 1966092, 1310722, 1, 2031628, 1310722, 1, -851955, 1310722, 1, -786419, 1310722, 1, -720883, 1310722, 1, -655347, 1310722, 1, 1703949, 1310722, 1, 1769485, 1310722, 1, 1835021, 1310722, 1, 1900557, 1310722, 1, 1966093, 1310722, 1, 2031629, 1310722, 1, -851954, 1310722, 1, -786418, 1310722, 1, -720882, 1310722, 1, -655346, 1310722, 1, 1703950, 1310722, 1, 1769486, 1310722, 1, 1835022, 1310722, 1, 1900558, 1310722, 1, 1966094, 1310722, 1, 2031630, 1310722, 1, -851953, 1310722, 1, -786417, 1310722, 1, -720881, 1310722, 1, -655345, 1310722, 1, 1703951, 1310722, 1, 1769487, 1310722, 1, 1835023, 1310722, 1, 1900559, 1310722, 1, 1966095, 1310722, 1, 2031631, 1310722, 1, -851952, 1310722, 1, -786416, 1310722, 1, -720880, 1310722, 1, -655344, 1310722, 1, 1703952, 1310722, 1, 1769488, 1310722, 1, 1835024, 1310722, 1, 1900560, 1310722, 1, 1966096, 1310722, 1, 2031632, 1310722, 1, -851951, 1310722, 1, -786415, 1310722, 1, -720879, 1310722, 1, -655343, 1310722, 1, 1703953, 1310722, 1, 1769489, 1310722, 1, 1835025, 1310722, 1, 1900561, 1310722, 1, 1966097, 1310722, 1, 2031633, 1310722, 1, -851950, 1310722, 1, -786414, 1310722, 1, -720878, 1310722, 1, -655342, 1310722, 1, 1703954, 1310722, 1, 1769490, 1310722, 1, 1835026, 1310722, 1, 1900562, 1310722, 1, 1966098, 1310722, 1, 2031634, 1310722, 1, -851949, 1310722, 1, -786413, 1310722, 1, -720877, 1310722, 1, -655341, 1310722, 1, 1703955, 1310722, 1, 1769491, 1310722, 1, 1835027, 1310722, 1, 1900563, 1310722, 1, 1966099, 1310722, 1, 2031635, 1310722, 1, -851948, 1310722, 1, -786412, 1310722, 1, -720876, 1310722, 1, -655340, 1310722, 1, 1703956, 1310722, 1, 1769492, 1310722, 1, 1835028, 1310722, 1, 1900564, 1310722, 1, 1966100, 1310722, 1, 2031636, 1310722, 1, -851947, 1310722, 1, -786411, 1310722, 1, -720875, 1310722, 1, -655339, 1310722, 1, 1703957, 1310722, 1, 1769493, 1310722, 1, 1835029, 1310722, 1, 1900565, 1310722, 1, 1966101, 1310722, 1, 2031637, 1310722, 1, -851946, 1310722, 1, -786410, 1310722, 1, -720874, 1310722, 1, -655338, 1310722, 1, 1703958, 1310722, 1, 1769494, 1310722, 1, 1835030, 1310722, 1, 1900566, 1310722, 1, 1966102, 1310722, 1, 2031638, 1310722, 1, -851945, 1310722, 1, -786409, 1310722, 1, -720873, 1310722, 1, -655337, 1310722, 1, 1703959, 1310722, 1, 1769495, 1310722, 1, 1835031, 1310722, 1, 1900567, 1310722, 1, 1966103, 1310722, 1, 2031639, 1310722, 1, -851944, 1310722, 1, -786408, 1310722, 1, -720872, 1310722, 1, -655336, 1310722, 1, 1703960, 1310722, 1, 1769496, 1310722, 1, 1835032, 1310722, 1, 1900568, 1310722, 1, 1966104, 1310722, 1, 2031640, 1310722, 1, -851943, 1310722, 1, -786407, 1310722, 1, -720871, 1310722, 1, -655335, 1310722, 1, 1703961, 1310722, 1, 1769497, 1310722, 1, 1835033, 1310722, 1, 1900569, 1310722, 1, 1966105, 1310722, 1, 2031641, 1310722, 1, -851942, 1310722, 1, -786406, 1310722, 1, -720870, 1310722, 1, -655334, 1310722, 1, 1703962, 1310722, 1, 1769498, 1310722, 1, 1835034, 1310722, 1, 1900570, 1310722, 1, 1966106, 1310722, 1, 2031642, 1310722, 1, -851941, 1310722, 1, -786405, 1310722, 1, -720869, 1310722, 1, -655333, 1310722, 1, 1703963, 1310722, 1, 1769499, 1310722, 1, 1835035, 1310722, 1, 1900571, 1310722, 1, 1966107, 1310722, 1, 2031643, 1310722, 1, -851940, 1310722, 1, -786404, 1310722, 1, -720868, 1310722, 1, -655332, 1310722, 1, 1703964, 1310722, 1, 1769500, 1310722, 1, 1835036, 1310722, 1, 1900572, 1310722, 1, 1966108, 1310722, 1, 2031644, 1310722, 1, -851939, 1310722, 1, -786403, 1310722, 1, -720867, 1310722, 1, -655331, 1310722, 1, 1703965, 1310722, 1, 1769501, 1310722, 1, 1835037, 1310722, 1, 1900573, 1310722, 1, 1966109, 1310722, 1, 2031645, 1310722, 1, -851938, 1310722, 1, -786402, 1310722, 1, -720866, 1310722, 1, -655330, 1310722, 1, 1703966, 1310722, 1, 1769502, 1310722, 1, 1835038, 1310722, 1, 1900574, 1310722, 1, 1966110, 1310722, 1, 2031646, 1310722, 1, -851937, 1310722, 1, -786401, 1310722, 1, -720865, 1310722, 1, -655329, 1310722, 1, 1703967, 1310722, 1, 1769503, 1310722, 1, 1835039, 1310722, 1, 1900575, 1310722, 1, 1966111, 1310722, 1, 2031647, 1310722, 1, -851936, 1310722, 1, -786400, 1310722, 1, -720864, 1310722, 1, -655328, 1310722, 1, 1703968, 1310722, 1, 1769504, 1310722, 1, 1835040, 1310722, 1, 1900576, 1310722, 1, 1966112, 1310722, 1, 2031648, 1310722, 1, -851935, 1310722, 1, -786399, 1310722, 1, -720863, 1310722, 1, -655327, 1310722, 1, 1703969, 1310722, 1, 1769505, 1310722, 1, 1835041, 1310722, 1, 1900577, 1310722, 1, 1966113, 1310722, 1, 2031649, 1310722, 1, -851934, 1310722, 1, -786398, 1310722, 1, -720862, 1310722, 1, -655326, 1310722, 1, 1703970, 1310722, 1, 1769506, 1310722, 1, 1835042, 1310722, 1, 1900578, 1310722, 1, 1966114, 1310722, 1, 2031650, 1310722, 1, -851933, 1310722, 1, -786397, 1310722, 1, -720861, 1310722, 1, -655325, 1310722, 1, 1703971, 1310722, 1, 1769507, 1310722, 1, 1835043, 1310722, 1, 1900579, 1310722, 1, 1966115, 1310722, 1, 2031651, 1310722, 1, -851932, 1310722, 1, -786396, 1310722, 1, -720860, 1310722, 1, -655324, 1310722, 1, 1703972, 1310722, 1, 1769508, 1310722, 1, 1835044, 1310722, 1, 1900580, 1310722, 1, 1966116, 1310722, 1, 2031652, 1310722, 1, -851931, 1310722, 1, -786395, 1310722, 1, -720859, 1310722, 1, -655323, 1310722, 1, 1703973, 1310722, 1, 1769509, 1310722, 1, 1835045, 1310722, 1, 1900581, 1310722, 1, 1966117, 1310722, 1, 2031653, 1310722, 1, -851930, 1310722, 1, -786394, 1310722, 1, -720858, 1310722, 1, -655322, 1310722, 1, 1703974, 1310722, 1, 1769510, 1310722, 1, 1835046, 1310722, 1, 1900582, 1310722, 1, 1966118, 1310722, 1, 2031654, 1310722, 1, -851929, 1310722, 1, -786393, 1310722, 1, -720857, 1310722, 1, -655321, 1310722, 1, 1703975, 1310722, 1, 1769511, 1310722, 1, 1835047, 1310722, 1, 1900583, 1310722, 1, 1966119, 1310722, 1, 2031655, 1310722, 1, -851928, 1310722, 1, -786392, 1310722, 1, -720856, 1310722, 1, -655320, 1310722, 1, 1703976, 1310722, 1, 1769512, 1310722, 1, 1835048, 1310722, 1, 1900584, 1310722, 1, 1966120, 1310722, 1, 2031656, 1310722, 1, -851927, 1310722, 1, -786391, 1310722, 1, -720855, 1310722, 1, -655319, 1310722, 1, 1703977, 1310722, 1, 1769513, 1310722, 1, 1835049, 1310722, 1, 1900585, 1310722, 1, 1966121, 1310722, 1, 2031657, 1310722, 1, -851926, 1310722, 1, -786390, 1310722, 1, -720854, 1310722, 1, -655318, 1310722, 1, 1703978, 1310722, 1, 1769514, 1310722, 1, 1835050, 1310722, 1, 1900586, 1310722, 1, 1966122, 1310722, 1, 2031658, 1310722, 1, -851925, 1310722, 1, -786389, 1310722, 1, -720853, 1310722, 1, -655317, 1310722, 1, 1703979, 1310722, 1, 1769515, 1310722, 1, 1835051, 1310722, 1, 1900587, 1310722, 1, 1966123, 1310722, 1, 2031659, 1310722, 1, -851924, 1310722, 1, -786388, 1310722, 1, -720852, 1310722, 1, -655316, 1310722, 1, -589780, 1310722, 1, -524244, 1310722, 1, -458708, 1310722, 1, -393172, 1310722, 1, -327636, 1310722, 1, -262100, 1310722, 1, -196564, 1310722, 1, -131028, 1310722, 1, -65492, 1310722, 1, 44, 1310722, 1, 65580, 1310722, 1, 131116, 1310722, 1, 196652, 1310722, 1, 262188, 1310722, 1, 327724, 1310722, 1, 393260, 1310722, 1, 458796, 1310722, 1, 524332, 1310722, 1, 589868, 1310722, 1, 655404, 1310722, 1, 720940, 1310722, 1, 786476, 1310722, 1, 852012, 1310722, 1, 917548, 1310722, 1, 983084, 1310722, 1, 1048620, 1310722, 1, 1114156, 1310722, 1, 1179692, 1310722, 1, 1245228, 1310722, 1, 1310764, 1310722, 1, 1376300, 1310722, 1, 1441836, 1310722, 1, 1507372, 1310722, 1, 1572908, 1310722, 1, 1638444, 1310722, 1, 1703980, 1310722, 1, 1769516, 1310722, 1, 1835052, 1310722, 1, 1900588, 1310722, 1, 1966124, 1310722, 1, 2031660, 1310722, 1, -851923, 1310722, 1, -786387, 1310722, 1, -720851, 1310722, 1, -655315, 1310722, 1, -589779, 1310722, 1, -524243, 1310722, 1, -458707, 1310722, 1, -393171, 1310722, 1, -327635, 1310722, 1, -262099, 1310722, 1, -196563, 1310722, 1, -131027, 1310722, 1, -65491, 1310722, 1, 45, 1310722, 1, 65581, 1310722, 1, 131117, 1310722, 1, 196653, 1310722, 1, 262189, 1310722, 1, 327725, 1310722, 1, 393261, 1310722, 1, 458797, 1310722, 1, 524333, 1310722, 1, 589869, 1310722, 1, 655405, 1310722, 1, 720941, 1310722, 1, 786477, 1310722, 1, 852013, 1310722, 1, 917549, 1310722, 1, 983085, 1310722, 1, 1048621, 1310722, 1, 1114157, 1310722, 1, 1179693, 1310722, 1, 1245229, 1310722, 1, 1310765, 1310722, 1, 1376301, 1310722, 1, 1441837, 1310722, 1, 1507373, 1310722, 1, 1572909, 1310722, 1, 1638445, 1310722, 1, 1703981, 1310722, 1, 1769517, 1310722, 1, 1835053, 1310722, 1, 1900589, 1310722, 1, 1966125, 1310722, 1, 2031661, 1310722, 1, -851922, 1310722, 1, -786386, 1310722, 1, -720850, 1310722, 1, -655314, 1310722, 1, -589778, 1310722, 1, -524242, 1310722, 1, -458706, 1310722, 1, -393170, 1310722, 1, -327634, 1310722, 1, -262098, 1310722, 1, -196562, 1310722, 1, -131026, 1310722, 1, -65490, 1310722, 1, 46, 1310722, 1, 65582, 1310722, 1, 131118, 1310722, 1, 196654, 1310722, 1, 262190, 1310722, 1, 327726, 1310722, 1, 393262, 1310722, 1, 458798, 1310722, 1, 524334, 1310722, 1, 589870, 1310722, 1, 655406, 1310722, 1, 720942, 1310722, 1, 786478, 1310722, 1, 852014, 1310722, 1, 917550, 1310722, 1, 983086, 1310722, 1, 1048622, 1310722, 1, 1114158, 1310722, 1, 1179694, 1310722, 1, 1245230, 1310722, 1, 1310766, 1310722, 1, 1376302, 1310722, 1, 1441838, 1310722, 1, 1507374, 1310722, 1, 1572910, 1310722, 1, 1638446, 1310722, 1, 1703982, 1310722, 1, 1769518, 1310722, 1, 1835054, 1310722, 1, 1900590, 1310722, 1, 1966126, 1310722, 1, 2031662, 1310722, 1)
